{
    "teamTableStats": [
        {
            "name": "Bayern",
            "teamId": 37,
            "teamName": "Bayern Munich",
            "teamRegionName": "Allemagne",
            "seasonId": 0,
            "seasonName": null,
            "tournamentId": 3,
            "isOpta": true,
            "tournamentRegionId": 81,
            "tournamentRegionCode": "de",
            "tournamentRegionName": "Allemagne",
            "regionCode": "de",
            "tournamentName": "Bundesliga",
            "rating": 7.16,
            "ranking": 1,
            "apps": 12,
            "shotsPerGame": 19.916666666666668,
            "shotOnTargetPerGame": 8.3333333333333339,
            "dribbleWonPerGame": 15.666666666666666,
            "foulGivenPerGame": 9.3333333333333339
        },
        {
            "name": "Wolves",
            "teamId": 161,
            "teamName": "Wolves",
            "teamRegionName": "Angleterre",
            "seasonId": 0,
            "seasonName": null,
            "tournamentId": 2,
            "isOpta": true,
            "tournamentRegionId": 252,
            "tournamentRegionCode": "gb-eng",
            "tournamentRegionName": "Angleterre",
            "regionCode": "gb-eng",
            "tournamentName": "Premier League",
            "rating": 6.63,
            "ranking": 2,
            "apps": 13,
            "shotsPerGame": 12.0,
            "shotOnTargetPerGame": 4.0,
            "dribbleWonPerGame": 13.0,
            "foulGivenPerGame": 11.384615384615385
        },
        {
            "name": "PSG",
            "teamId": 304,
            "teamName": "Paris Saint-Germain",
            "teamRegionName": "France",
            "seasonId": 0,
            "seasonName": null,
            "tournamentId": 22,
            "isOpta": true,
            "tournamentRegionId": 74,
            "tournamentRegionCode": "fr",
            "tournamentRegionName": "France",
            "regionCode": "fr",
            "tournamentName": "Ligue 1",
            "rating": 7.04,
            "ranking": 3,
            "apps": 13,
            "shotsPerGame": 16.615384615384617,
            "shotOnTargetPerGame": 6.7692307692307692,
            "dribbleWonPerGame": 12.23076923076923,
            "foulGivenPerGame": 12.153846153846153
        },
        {
            "name": "Barcelona",
            "teamId": 65,
            "teamName": "Barcelona",
            "teamRegionName": "Espagne",
            "seasonId": 0,
            "seasonName": null,
            "tournamentId": 4,
            "isOpta": true,
            "tournamentRegionId": 206,
            "tournamentRegionCode": "es",
            "tournamentRegionName": "Espagne",
            "regionCode": "es",
            "tournamentName": "LaLiga",
            "rating": 6.8100000000000005,
            "ranking": 4,
            "apps": 14,
            "shotsPerGame": 15.357142857142858,
            "shotOnTargetPerGame": 6.1428571428571432,
            "dribbleWonPerGame": 12.214285714285714,
            "foulGivenPerGame": 14.285714285714286
        },
        {
            "name": "Leverkusen",
            "teamId": 36,
            "teamName": "Bayer Leverkusen",
            "teamRegionName": "Allemagne",
            "seasonId": 0,
            "seasonName": null,
            "tournamentId": 3,
            "isOpta": true,
            "tournamentRegionId": 81,
            "tournamentRegionCode": "de",
            "tournamentRegionName": "Allemagne",
            "regionCode": "de",
            "tournamentName": "Bundesliga",
            "rating": 6.98,
            "ranking": 5,
            "apps": 12,
            "shotsPerGame": 16.25,
            "shotOnTargetPerGame": 7.416666666666667,
            "dribbleWonPerGame": 11.583333333333334,
            "foulGivenPerGame": 9.0833333333333339
        },
        {
            "name": "Nice",
            "teamId": 613,
            "teamName": "Nice",
            "teamRegionName": "France",
            "seasonId": 0,
            "seasonName": null,
            "tournamentId": 22,
            "isOpta": true,
            "tournamentRegionId": 74,
            "tournamentRegionCode": "fr",
            "tournamentRegionName": "France",
            "regionCode": "fr",
            "tournamentName": "Ligue 1",
            "rating": 6.74,
            "ranking": 6,
            "apps": 13,
            "shotsPerGame": 13.23076923076923,
            "shotOnTargetPerGame": 4.4615384615384617,
            "dribbleWonPerGame": 11.538461538461538,
            "foulGivenPerGame": 10.615384615384615
        },
        {
            "name": "Real Madrid",
            "teamId": 52,
            "teamName": "Real Madrid",
            "teamRegionName": "Espagne",
            "seasonId": 0,
            "seasonName": null,
            "tournamentId": 4,
            "isOpta": true,
            "tournamentRegionId": 206,
            "tournamentRegionCode": "es",
            "tournamentRegionName": "Espagne",
            "regionCode": "es",
            "tournamentName": "LaLiga",
            "rating": 6.93,
            "ranking": 7,
            "apps": 14,
            "shotsPerGame": 17.5,
            "shotOnTargetPerGame": 6.8571428571428568,
            "dribbleWonPerGame": 11.142857142857142,
            "foulGivenPerGame": 13.714285714285714
        },
        {
            "name": "Lille",
            "teamId": 607,
            "teamName": "Lille",
            "teamRegionName": "France",
            "seasonId": 0,
            "seasonName": null,
            "tournamentId": 22,
            "isOpta": true,
            "tournamentRegionId": 74,
            "tournamentRegionCode": "fr",
            "tournamentRegionName": "France",
            "regionCode": "fr",
            "tournamentName": "Ligue 1",
            "rating": 6.76,
            "ranking": 8,
            "apps": 13,
            "shotsPerGame": 12.538461538461538,
            "shotOnTargetPerGame": 5.2307692307692308,
            "dribbleWonPerGame": 11.0,
            "foulGivenPerGame": 14.076923076923077
        },
        {
            "name": "Lorient",
            "teamId": 146,
            "teamName": "Lorient",
            "teamRegionName": "France",
            "seasonId": 0,
            "seasonName": null,
            "tournamentId": 22,
            "isOpta": true,
            "tournamentRegionId": 74,
            "tournamentRegionCode": "fr",
            "tournamentRegionName": "France",
            "regionCode": "fr",
            "tournamentName": "Ligue 1",
            "rating": 6.62,
            "ranking": 9,
            "apps": 13,
            "shotsPerGame": 8.6923076923076916,
            "shotOnTargetPerGame": 3.3076923076923075,
            "dribbleWonPerGame": 10.923076923076923,
            "foulGivenPerGame": 12.461538461538462
        },
        {
            "name": "Tottenham",
            "teamId": 30,
            "teamName": "Tottenham",
            "teamRegionName": "Angleterre",
            "seasonId": 0,
            "seasonName": null,
            "tournamentId": 2,
            "isOpta": true,
            "tournamentRegionId": 252,
            "tournamentRegionCode": "gb-eng",
            "tournamentRegionName": "Angleterre",
            "regionCode": "gb-eng",
            "tournamentName": "Premier League",
            "rating": 6.8,
            "ranking": 10,
            "apps": 13,
            "shotsPerGame": 16.153846153846153,
            "shotOnTargetPerGame": 5.9230769230769234,
            "dribbleWonPerGame": 10.846153846153847,
            "foulGivenPerGame": 14.538461538461538
        },
        {
            "name": "Bournemouth",
            "teamId": 183,
            "teamName": "Bournemouth",
            "teamRegionName": "Angleterre",
            "seasonId": 0,
            "seasonName": null,
            "tournamentId": 2,
            "isOpta": true,
            "tournamentRegionId": 252,
            "tournamentRegionCode": "gb-eng",
            "tournamentRegionName": "Angleterre",
            "regionCode": "gb-eng",
            "tournamentName": "Premier League",
            "rating": 6.47,
            "ranking": 11,
            "apps": 13,
            "shotsPerGame": 12.384615384615385,
            "shotOnTargetPerGame": 4.8461538461538458,
            "dribbleWonPerGame": 10.846153846153847,
            "foulGivenPerGame": 10.0
        },
        {
            "name": "Brest",
            "teamId": 2332,
            "teamName": "Brest",
            "teamRegionName": "France",
            "seasonId": 0,
            "seasonName": null,
            "tournamentId": 22,
            "isOpta": true,
            "tournamentRegionId": 74,
            "tournamentRegionCode": "fr",
            "tournamentRegionName": "France",
            "regionCode": "fr",
            "tournamentName": "Ligue 1",
            "rating": 6.67,
            "ranking": 12,
            "apps": 12,
            "shotsPerGame": 15.25,
            "shotOnTargetPerGame": 4.666666666666667,
            "dribbleWonPerGame": 10.666666666666666,
            "foulGivenPerGame": 12.083333333333334
        },
        {
            "name": "Stuttgart",
            "teamId": 41,
            "teamName": "VfB Stuttgart",
            "teamRegionName": "Allemagne",
            "seasonId": 0,
            "seasonName": null,
            "tournamentId": 3,
            "isOpta": true,
            "tournamentRegionId": 81,
            "tournamentRegionCode": "de",
            "tournamentRegionName": "Allemagne",
            "regionCode": "de",
            "tournamentName": "Bundesliga",
            "rating": 6.86,
            "ranking": 13,
            "apps": 12,
            "shotsPerGame": 15.916666666666666,
            "shotOnTargetPerGame": 6.666666666666667,
            "dribbleWonPerGame": 10.583333333333334,
            "foulGivenPerGame": 11.666666666666666
        },
        {
            "name": "Reims",
            "teamId": 950,
            "teamName": "Reims",
            "teamRegionName": "France",
            "seasonId": 0,
            "seasonName": null,
            "tournamentId": 22,
            "isOpta": true,
            "tournamentRegionId": 74,
            "tournamentRegionCode": "fr",
            "tournamentRegionName": "France",
            "regionCode": "fr",
            "tournamentName": "Ligue 1",
            "rating": 6.67,
            "ranking": 14,
            "apps": 13,
            "shotsPerGame": 11.307692307692308,
            "shotOnTargetPerGame": 4.4615384615384617,
            "dribbleWonPerGame": 10.538461538461538,
            "foulGivenPerGame": 8.6923076923076916
        },
        {
            "name": "Man City",
            "teamId": 167,
            "teamName": "Manchester City",
            "teamRegionName": "Angleterre",
            "seasonId": 0,
            "seasonName": null,
            "tournamentId": 2,
            "isOpta": true,
            "tournamentRegionId": 252,
            "tournamentRegionCode": "gb-eng",
            "tournamentRegionName": "Angleterre",
            "regionCode": "gb-eng",
            "tournamentName": "Premier League",
            "rating": 6.96,
            "ranking": 15,
            "apps": 13,
            "shotsPerGame": 16.46153846153846,
            "shotOnTargetPerGame": 7.1538461538461542,
            "dribbleWonPerGame": 10.384615384615385,
            "foulGivenPerGame": 11.153846153846153
        },
        {
            "name": "Real Betis",
            "teamId": 54,
            "teamName": "Real Betis",
            "teamRegionName": "Espagne",
            "seasonId": 0,
            "seasonName": null,
            "tournamentId": 4,
            "isOpta": true,
            "tournamentRegionId": 206,
            "tournamentRegionCode": "es",
            "tournamentRegionName": "Espagne",
            "regionCode": "es",
            "tournamentName": "LaLiga",
            "rating": 6.66,
            "ranking": 16,
            "apps": 14,
            "shotsPerGame": 13.214285714285714,
            "shotOnTargetPerGame": 3.9285714285714284,
            "dribbleWonPerGame": 10.357142857142858,
            "foulGivenPerGame": 14.428571428571429
        },
        {
            "name": "Monaco",
            "teamId": 248,
            "teamName": "Monaco",
            "teamRegionName": "France",
            "seasonId": 0,
            "seasonName": null,
            "tournamentId": 22,
            "isOpta": true,
            "tournamentRegionId": 74,
            "tournamentRegionCode": "fr",
            "tournamentRegionName": "France",
            "regionCode": "fr",
            "tournamentName": "Ligue 1",
            "rating": 6.78,
            "ranking": 17,
            "apps": 13,
            "shotsPerGame": 14.692307692307692,
            "shotOnTargetPerGame": 6.5384615384615383,
            "dribbleWonPerGame": 10.23076923076923,
            "foulGivenPerGame": 11.384615384615385
        },
        {
            "name": "Chelsea",
            "teamId": 15,
            "teamName": "Chelsea",
            "teamRegionName": "Angleterre",
            "seasonId": 0,
            "seasonName": null,
            "tournamentId": 2,
            "isOpta": true,
            "tournamentRegionId": 252,
            "tournamentRegionCode": "gb-eng",
            "tournamentRegionName": "Angleterre",
            "regionCode": "gb-eng",
            "tournamentName": "Premier League",
            "rating": 6.66,
            "ranking": 18,
            "apps": 13,
            "shotsPerGame": 13.846153846153847,
            "shotOnTargetPerGame": 5.0,
            "dribbleWonPerGame": 10.153846153846153,
            "foulGivenPerGame": 11.692307692307692
        },
        {
            "name": "Crystal Palace",
            "teamId": 162,
            "teamName": "Crystal Palace",
            "teamRegionName": "Angleterre",
            "seasonId": 0,
            "seasonName": null,
            "tournamentId": 2,
            "isOpta": true,
            "tournamentRegionId": 252,
            "tournamentRegionCode": "gb-eng",
            "tournamentRegionName": "Angleterre",
            "regionCode": "gb-eng",
            "tournamentName": "Premier League",
            "rating": 6.71,
            "ranking": 19,
            "apps": 13,
            "shotsPerGame": 12.384615384615385,
            "shotOnTargetPerGame": 4.384615384615385,
            "dribbleWonPerGame": 10.153846153846153,
            "foulGivenPerGame": 11.923076923076923
        },
        {
            "name": "Granada",
            "teamId": 925,
            "teamName": "Granada",
            "teamRegionName": "Espagne",
            "seasonId": 0,
            "seasonName": null,
            "tournamentId": 4,
            "isOpta": true,
            "tournamentRegionId": 206,
            "tournamentRegionCode": "es",
            "tournamentRegionName": "Espagne",
            "regionCode": "es",
            "tournamentName": "LaLiga",
            "rating": 6.39,
            "ranking": 20,
            "apps": 14,
            "shotsPerGame": 11.214285714285714,
            "shotOnTargetPerGame": 4.3571428571428568,
            "dribbleWonPerGame": 10.142857142857142,
            "foulGivenPerGame": 14.0
        }
    ],
    "paging": {
        "currentPage": 1,
        "totalPages": 5,
        "resultsPerPage": 20,
        "totalResults": 96,
        "firstRecordIndex": 1,
        "lastRecordIndex": 20
    },
    "statColumns": [
        "apps",
        "shotsPerGame",
        "shotOnTargetPerGame",
        "dribbleWonPerGame",
        "foulGivenPerGame"
    ]
}