{
    "teamTableStats": [
        {
            "name": "Bayern",
            "teamId": 37,
            "teamName": "Bayern Munich",
            "teamRegionName": "Allemagne",
            "seasonId": 0,
            "seasonName": null,
            "tournamentId": 3,
            "isOpta": true,
            "tournamentRegionId": 81,
            "tournamentRegionCode": "de",
            "tournamentRegionName": "Allemagne",
            "regionCode": "de",
            "tournamentName": "Bundesliga",
            "rating": 7.12,
            "ranking": 1,
            "apps": 6,
            "shotsPerGame": 18.166666666666668,
            "shotOnTargetPerGame": 6.833333333333333,
            "dribbleWonPerGame": 16.833333333333332,
            "foulGivenPerGame": 10.333333333333334
        },
        {
            "name": "PSG",
            "teamId": 304,
            "teamName": "Paris Saint-Germain",
            "teamRegionName": "France",
            "seasonId": 0,
            "seasonName": null,
            "tournamentId": 22,
            "isOpta": true,
            "tournamentRegionId": 74,
            "tournamentRegionCode": "fr",
            "tournamentRegionName": "France",
            "regionCode": "fr",
            "tournamentName": "Ligue 1",
            "rating": 7.07,
            "ranking": 2,
            "apps": 6,
            "shotsPerGame": 17.833333333333332,
            "shotOnTargetPerGame": 7.333333333333333,
            "dribbleWonPerGame": 13.333333333333334,
            "foulGivenPerGame": 11.0
        },
        {
            "name": "Barcelona",
            "teamId": 65,
            "teamName": "Barcelona",
            "teamRegionName": "Espagne",
            "seasonId": 0,
            "seasonName": null,
            "tournamentId": 4,
            "isOpta": true,
            "tournamentRegionId": 206,
            "tournamentRegionCode": "es",
            "tournamentRegionName": "Espagne",
            "regionCode": "es",
            "tournamentName": "LaLiga",
            "rating": 6.74,
            "ranking": 3,
            "apps": 7,
            "shotsPerGame": 14.714285714285714,
            "shotOnTargetPerGame": 5.8571428571428568,
            "dribbleWonPerGame": 12.857142857142858,
            "foulGivenPerGame": 14.714285714285714
        },
        {
            "name": "Monaco",
            "teamId": 248,
            "teamName": "Monaco",
            "teamRegionName": "France",
            "seasonId": 0,
            "seasonName": null,
            "tournamentId": 22,
            "isOpta": true,
            "tournamentRegionId": 74,
            "tournamentRegionCode": "fr",
            "tournamentRegionName": "France",
            "regionCode": "fr",
            "tournamentName": "Ligue 1",
            "rating": 6.7,
            "ranking": 4,
            "apps": 7,
            "shotsPerGame": 16.0,
            "shotOnTargetPerGame": 6.5714285714285712,
            "dribbleWonPerGame": 11.142857142857142,
            "foulGivenPerGame": 10.142857142857142
        },
        {
            "name": "Chelsea",
            "teamId": 15,
            "teamName": "Chelsea",
            "teamRegionName": "Angleterre",
            "seasonId": 0,
            "seasonName": null,
            "tournamentId": 2,
            "isOpta": true,
            "tournamentRegionId": 252,
            "tournamentRegionCode": "gb-eng",
            "tournamentRegionName": "Angleterre",
            "regionCode": "gb-eng",
            "tournamentName": "Premier League",
            "rating": 6.71,
            "ranking": 5,
            "apps": 6,
            "shotsPerGame": 12.5,
            "shotOnTargetPerGame": 5.166666666666667,
            "dribbleWonPerGame": 11.0,
            "foulGivenPerGame": 12.666666666666666
        },
        {
            "name": "Lorient",
            "teamId": 146,
            "teamName": "Lorient",
            "teamRegionName": "France",
            "seasonId": 0,
            "seasonName": null,
            "tournamentId": 22,
            "isOpta": true,
            "tournamentRegionId": 74,
            "tournamentRegionCode": "fr",
            "tournamentRegionName": "France",
            "regionCode": "fr",
            "tournamentName": "Ligue 1",
            "rating": 6.49,
            "ranking": 6,
            "apps": 6,
            "shotsPerGame": 8.0,
            "shotOnTargetPerGame": 3.0,
            "dribbleWonPerGame": 11.0,
            "foulGivenPerGame": 13.0
        },
        {
            "name": "Tottenham",
            "teamId": 30,
            "teamName": "Tottenham",
            "teamRegionName": "Angleterre",
            "seasonId": 0,
            "seasonName": null,
            "tournamentId": 2,
            "isOpta": true,
            "tournamentRegionId": 252,
            "tournamentRegionCode": "gb-eng",
            "tournamentRegionName": "Angleterre",
            "regionCode": "gb-eng",
            "tournamentName": "Premier League",
            "rating": 6.84,
            "ranking": 7,
            "apps": 7,
            "shotsPerGame": 14.285714285714286,
            "shotOnTargetPerGame": 5.0,
            "dribbleWonPerGame": 10.857142857142858,
            "foulGivenPerGame": 15.142857142857142
        },
        {
            "name": "Leverkusen",
            "teamId": 36,
            "teamName": "Bayer Leverkusen",
            "teamRegionName": "Allemagne",
            "seasonId": 0,
            "seasonName": null,
            "tournamentId": 3,
            "isOpta": true,
            "tournamentRegionId": 81,
            "tournamentRegionCode": "de",
            "tournamentRegionName": "Allemagne",
            "regionCode": "de",
            "tournamentName": "Bundesliga",
            "rating": 6.91,
            "ranking": 8,
            "apps": 6,
            "shotsPerGame": 13.166666666666666,
            "shotOnTargetPerGame": 5.833333333333333,
            "dribbleWonPerGame": 10.833333333333334,
            "foulGivenPerGame": 9.6666666666666661
        },
        {
            "name": "Villarreal",
            "teamId": 839,
            "teamName": "Villarreal",
            "teamRegionName": "Espagne",
            "seasonId": 0,
            "seasonName": null,
            "tournamentId": 4,
            "isOpta": true,
            "tournamentRegionId": 206,
            "tournamentRegionCode": "es",
            "tournamentRegionName": "Espagne",
            "regionCode": "es",
            "tournamentName": "LaLiga",
            "rating": 6.57,
            "ranking": 9,
            "apps": 6,
            "shotsPerGame": 9.1666666666666661,
            "shotOnTargetPerGame": 4.0,
            "dribbleWonPerGame": 10.833333333333334,
            "foulGivenPerGame": 15.166666666666666
        },
        {
            "name": "Clermont Foot",
            "teamId": 941,
            "teamName": "Clermont Foot",
            "teamRegionName": "France",
            "seasonId": 0,
            "seasonName": null,
            "tournamentId": 22,
            "isOpta": true,
            "tournamentRegionId": 74,
            "tournamentRegionCode": "fr",
            "tournamentRegionName": "France",
            "regionCode": "fr",
            "tournamentName": "Ligue 1",
            "rating": 6.58,
            "ranking": 10,
            "apps": 6,
            "shotsPerGame": 10.666666666666666,
            "shotOnTargetPerGame": 3.1666666666666665,
            "dribbleWonPerGame": 10.833333333333334,
            "foulGivenPerGame": 15.0
        },
        {
            "name": "Lille",
            "teamId": 607,
            "teamName": "Lille",
            "teamRegionName": "France",
            "seasonId": 0,
            "seasonName": null,
            "tournamentId": 22,
            "isOpta": true,
            "tournamentRegionId": 74,
            "tournamentRegionCode": "fr",
            "tournamentRegionName": "France",
            "regionCode": "fr",
            "tournamentName": "Ligue 1",
            "rating": 6.7,
            "ranking": 11,
            "apps": 7,
            "shotsPerGame": 12.714285714285714,
            "shotOnTargetPerGame": 5.1428571428571432,
            "dribbleWonPerGame": 10.714285714285714,
            "foulGivenPerGame": 14.0
        },
        {
            "name": "Brest",
            "teamId": 2332,
            "teamName": "Brest",
            "teamRegionName": "France",
            "seasonId": 0,
            "seasonName": null,
            "tournamentId": 22,
            "isOpta": true,
            "tournamentRegionId": 74,
            "tournamentRegionCode": "fr",
            "tournamentRegionName": "France",
            "regionCode": "fr",
            "tournamentName": "Ligue 1",
            "rating": 6.61,
            "ranking": 12,
            "apps": 7,
            "shotsPerGame": 13.428571428571429,
            "shotOnTargetPerGame": 4.0,
            "dribbleWonPerGame": 10.428571428571429,
            "foulGivenPerGame": 11.142857142857142
        },
        {
            "name": "Real Madrid",
            "teamId": 52,
            "teamName": "Real Madrid",
            "teamRegionName": "Espagne",
            "seasonId": 0,
            "seasonName": null,
            "tournamentId": 4,
            "isOpta": true,
            "tournamentRegionId": 206,
            "tournamentRegionCode": "es",
            "tournamentRegionName": "Espagne",
            "regionCode": "es",
            "tournamentName": "LaLiga",
            "rating": 6.88,
            "ranking": 13,
            "apps": 8,
            "shotsPerGame": 15.5,
            "shotOnTargetPerGame": 5.75,
            "dribbleWonPerGame": 10.375,
            "foulGivenPerGame": 14.125
        },
        {
            "name": "Bournemouth",
            "teamId": 183,
            "teamName": "Bournemouth",
            "teamRegionName": "Angleterre",
            "seasonId": 0,
            "seasonName": null,
            "tournamentId": 2,
            "isOpta": true,
            "tournamentRegionId": 252,
            "tournamentRegionCode": "gb-eng",
            "tournamentRegionName": "Angleterre",
            "regionCode": "gb-eng",
            "tournamentName": "Premier League",
            "rating": 6.39,
            "ranking": 14,
            "apps": 6,
            "shotsPerGame": 12.666666666666666,
            "shotOnTargetPerGame": 5.0,
            "dribbleWonPerGame": 10.333333333333334,
            "foulGivenPerGame": 9.1666666666666661
        },
        {
            "name": "Crystal Palace",
            "teamId": 162,
            "teamName": "Crystal Palace",
            "teamRegionName": "Angleterre",
            "seasonId": 0,
            "seasonName": null,
            "tournamentId": 2,
            "isOpta": true,
            "tournamentRegionId": 252,
            "tournamentRegionCode": "gb-eng",
            "tournamentRegionName": "Angleterre",
            "regionCode": "gb-eng",
            "tournamentName": "Premier League",
            "rating": 6.74,
            "ranking": 15,
            "apps": 7,
            "shotsPerGame": 12.857142857142858,
            "shotOnTargetPerGame": 4.5714285714285712,
            "dribbleWonPerGame": 10.285714285714286,
            "foulGivenPerGame": 11.285714285714286
        },
        {
            "name": "West Ham",
            "teamId": 29,
            "teamName": "West Ham",
            "teamRegionName": "Angleterre",
            "seasonId": 0,
            "seasonName": null,
            "tournamentId": 2,
            "isOpta": true,
            "tournamentRegionId": 252,
            "tournamentRegionCode": "gb-eng",
            "tournamentRegionName": "Angleterre",
            "regionCode": "gb-eng",
            "tournamentName": "Premier League",
            "rating": 6.68,
            "ranking": 16,
            "apps": 7,
            "shotsPerGame": 12.142857142857142,
            "shotOnTargetPerGame": 3.7142857142857144,
            "dribbleWonPerGame": 10.142857142857142,
            "foulGivenPerGame": 9.5714285714285712
        },
        {
            "name": "Real Betis",
            "teamId": 54,
            "teamName": "Real Betis",
            "teamRegionName": "Espagne",
            "seasonId": 0,
            "seasonName": null,
            "tournamentId": 4,
            "isOpta": true,
            "tournamentRegionId": 206,
            "tournamentRegionCode": "es",
            "tournamentRegionName": "Espagne",
            "regionCode": "es",
            "tournamentName": "LaLiga",
            "rating": 6.49,
            "ranking": 17,
            "apps": 7,
            "shotsPerGame": 11.142857142857142,
            "shotOnTargetPerGame": 3.5714285714285716,
            "dribbleWonPerGame": 10.0,
            "foulGivenPerGame": 14.714285714285714
        },
        {
            "name": "Valencia",
            "teamId": 55,
            "teamName": "Valencia",
            "teamRegionName": "Espagne",
            "seasonId": 0,
            "seasonName": null,
            "tournamentId": 4,
            "isOpta": true,
            "tournamentRegionId": 206,
            "tournamentRegionCode": "es",
            "tournamentRegionName": "Espagne",
            "regionCode": "es",
            "tournamentName": "LaLiga",
            "rating": 6.5,
            "ranking": 18,
            "apps": 7,
            "shotsPerGame": 9.5714285714285712,
            "shotOnTargetPerGame": 3.7142857142857144,
            "dribbleWonPerGame": 9.7142857142857135,
            "foulGivenPerGame": 12.714285714285714
        },
        {
            "name": "Granada",
            "teamId": 925,
            "teamName": "Granada",
            "teamRegionName": "Espagne",
            "seasonId": 0,
            "seasonName": null,
            "tournamentId": 4,
            "isOpta": true,
            "tournamentRegionId": 206,
            "tournamentRegionCode": "es",
            "tournamentRegionName": "Espagne",
            "regionCode": "es",
            "tournamentName": "LaLiga",
            "rating": 6.3,
            "ranking": 19,
            "apps": 7,
            "shotsPerGame": 9.4285714285714288,
            "shotOnTargetPerGame": 3.1428571428571428,
            "dribbleWonPerGame": 9.7142857142857135,
            "foulGivenPerGame": 14.857142857142858
        },
        {
            "name": "Atletico",
            "teamId": 63,
            "teamName": "Atletico Madrid",
            "teamRegionName": "Espagne",
            "seasonId": 0,
            "seasonName": null,
            "tournamentId": 4,
            "isOpta": true,
            "tournamentRegionId": 206,
            "tournamentRegionCode": "es",
            "tournamentRegionName": "Espagne",
            "regionCode": "es",
            "tournamentName": "LaLiga",
            "rating": 6.83,
            "ranking": 20,
            "apps": 6,
            "shotsPerGame": 10.5,
            "shotOnTargetPerGame": 4.833333333333333,
            "dribbleWonPerGame": 9.6666666666666661,
            "foulGivenPerGame": 11.833333333333334
        }
    ],
    "paging": {
        "currentPage": 1,
        "totalPages": 5,
        "resultsPerPage": 20,
        "totalResults": 96,
        "firstRecordIndex": 1,
        "lastRecordIndex": 20
    },
    "statColumns": [
        "apps",
        "shotsPerGame",
        "shotOnTargetPerGame",
        "dribbleWonPerGame",
        "foulGivenPerGame"
    ]
}