{
    "teamTableStats": [
        {
            "name": "Wolves",
            "teamId": 161,
            "teamName": "Wolves",
            "teamRegionName": "Angleterre",
            "seasonId": 0,
            "seasonName": null,
            "tournamentId": 2,
            "isOpta": true,
            "tournamentRegionId": 252,
            "tournamentRegionCode": "gb-eng",
            "tournamentRegionName": "Angleterre",
            "regionCode": "gb-eng",
            "tournamentName": "Premier League",
            "rating": 6.6,
            "ranking": 1,
            "apps": 6,
            "shotsPerGame": 11.0,
            "shotOnTargetPerGame": 3.5,
            "dribbleWonPerGame": 17.166666666666668,
            "foulGivenPerGame": 10.666666666666666
        },
        {
            "name": "Bayern",
            "teamId": 37,
            "teamName": "Bayern Munich",
            "teamRegionName": "Allemagne",
            "seasonId": 0,
            "seasonName": null,
            "tournamentId": 3,
            "isOpta": true,
            "tournamentRegionId": 81,
            "tournamentRegionCode": "de",
            "tournamentRegionName": "Allemagne",
            "regionCode": "de",
            "tournamentName": "Bundesliga",
            "rating": 7.21,
            "ranking": 2,
            "apps": 6,
            "shotsPerGame": 21.666666666666668,
            "shotOnTargetPerGame": 9.8333333333333339,
            "dribbleWonPerGame": 14.5,
            "foulGivenPerGame": 8.3333333333333339
        },
        {
            "name": "Nice",
            "teamId": 613,
            "teamName": "Nice",
            "teamRegionName": "France",
            "seasonId": 0,
            "seasonName": null,
            "tournamentId": 22,
            "isOpta": true,
            "tournamentRegionId": 74,
            "tournamentRegionCode": "fr",
            "tournamentRegionName": "France",
            "regionCode": "fr",
            "tournamentName": "Ligue 1",
            "rating": 6.78,
            "ranking": 3,
            "apps": 7,
            "shotsPerGame": 12.857142857142858,
            "shotOnTargetPerGame": 3.1428571428571428,
            "dribbleWonPerGame": 14.142857142857142,
            "foulGivenPerGame": 11.285714285714286
        },
        {
            "name": "Reims",
            "teamId": 950,
            "teamName": "Reims",
            "teamRegionName": "France",
            "seasonId": 0,
            "seasonName": null,
            "tournamentId": 22,
            "isOpta": true,
            "tournamentRegionId": 74,
            "tournamentRegionCode": "fr",
            "tournamentRegionName": "France",
            "regionCode": "fr",
            "tournamentName": "Ligue 1",
            "rating": 6.6899999999999995,
            "ranking": 4,
            "apps": 6,
            "shotsPerGame": 11.833333333333334,
            "shotOnTargetPerGame": 4.833333333333333,
            "dribbleWonPerGame": 12.833333333333334,
            "foulGivenPerGame": 9.0
        },
        {
            "name": "Leverkusen",
            "teamId": 36,
            "teamName": "Bayer Leverkusen",
            "teamRegionName": "Allemagne",
            "seasonId": 0,
            "seasonName": null,
            "tournamentId": 3,
            "isOpta": true,
            "tournamentRegionId": 81,
            "tournamentRegionCode": "de",
            "tournamentRegionName": "Allemagne",
            "regionCode": "de",
            "tournamentName": "Bundesliga",
            "rating": 7.05,
            "ranking": 5,
            "apps": 6,
            "shotsPerGame": 19.333333333333332,
            "shotOnTargetPerGame": 9.0,
            "dribbleWonPerGame": 12.333333333333334,
            "foulGivenPerGame": 8.5
        },
        {
            "name": "Stuttgart",
            "teamId": 41,
            "teamName": "VfB Stuttgart",
            "teamRegionName": "Allemagne",
            "seasonId": 0,
            "seasonName": null,
            "tournamentId": 3,
            "isOpta": true,
            "tournamentRegionId": 81,
            "tournamentRegionCode": "de",
            "tournamentRegionName": "Allemagne",
            "regionCode": "de",
            "tournamentName": "Bundesliga",
            "rating": 7.01,
            "ranking": 6,
            "apps": 6,
            "shotsPerGame": 18.5,
            "shotOnTargetPerGame": 9.0,
            "dribbleWonPerGame": 12.166666666666666,
            "foulGivenPerGame": 11.666666666666666
        },
        {
            "name": "Real Madrid",
            "teamId": 52,
            "teamName": "Real Madrid",
            "teamRegionName": "Espagne",
            "seasonId": 0,
            "seasonName": null,
            "tournamentId": 4,
            "isOpta": true,
            "tournamentRegionId": 206,
            "tournamentRegionCode": "es",
            "tournamentRegionName": "Espagne",
            "regionCode": "es",
            "tournamentName": "LaLiga",
            "rating": 7.0,
            "ranking": 7,
            "apps": 6,
            "shotsPerGame": 20.166666666666668,
            "shotOnTargetPerGame": 8.3333333333333339,
            "dribbleWonPerGame": 12.166666666666666,
            "foulGivenPerGame": 13.166666666666666
        },
        {
            "name": "Man City",
            "teamId": 167,
            "teamName": "Manchester City",
            "teamRegionName": "Angleterre",
            "seasonId": 0,
            "seasonName": null,
            "tournamentId": 2,
            "isOpta": true,
            "tournamentRegionId": 252,
            "tournamentRegionCode": "gb-eng",
            "tournamentRegionName": "Angleterre",
            "regionCode": "gb-eng",
            "tournamentName": "Premier League",
            "rating": 7.03,
            "ranking": 8,
            "apps": 6,
            "shotsPerGame": 12.5,
            "shotOnTargetPerGame": 5.333333333333333,
            "dribbleWonPerGame": 11.666666666666666,
            "foulGivenPerGame": 11.666666666666666
        },
        {
            "name": "Barcelona",
            "teamId": 65,
            "teamName": "Barcelona",
            "teamRegionName": "Espagne",
            "seasonId": 0,
            "seasonName": null,
            "tournamentId": 4,
            "isOpta": true,
            "tournamentRegionId": 206,
            "tournamentRegionCode": "es",
            "tournamentRegionName": "Espagne",
            "regionCode": "es",
            "tournamentName": "LaLiga",
            "rating": 6.89,
            "ranking": 9,
            "apps": 7,
            "shotsPerGame": 16.0,
            "shotOnTargetPerGame": 6.4285714285714288,
            "dribbleWonPerGame": 11.571428571428571,
            "foulGivenPerGame": 13.857142857142858
        },
        {
            "name": "Lille",
            "teamId": 607,
            "teamName": "Lille",
            "teamRegionName": "France",
            "seasonId": 0,
            "seasonName": null,
            "tournamentId": 22,
            "isOpta": true,
            "tournamentRegionId": 74,
            "tournamentRegionCode": "fr",
            "tournamentRegionName": "France",
            "regionCode": "fr",
            "tournamentName": "Ligue 1",
            "rating": 6.83,
            "ranking": 10,
            "apps": 6,
            "shotsPerGame": 12.333333333333334,
            "shotOnTargetPerGame": 5.333333333333333,
            "dribbleWonPerGame": 11.333333333333334,
            "foulGivenPerGame": 14.166666666666666
        },
        {
            "name": "Bournemouth",
            "teamId": 183,
            "teamName": "Bournemouth",
            "teamRegionName": "Angleterre",
            "seasonId": 0,
            "seasonName": null,
            "tournamentId": 2,
            "isOpta": true,
            "tournamentRegionId": 252,
            "tournamentRegionCode": "gb-eng",
            "tournamentRegionName": "Angleterre",
            "regionCode": "gb-eng",
            "tournamentName": "Premier League",
            "rating": 6.54,
            "ranking": 11,
            "apps": 7,
            "shotsPerGame": 12.142857142857142,
            "shotOnTargetPerGame": 4.7142857142857144,
            "dribbleWonPerGame": 11.285714285714286,
            "foulGivenPerGame": 10.714285714285714
        },
        {
            "name": "PSG",
            "teamId": 304,
            "teamName": "Paris Saint-Germain",
            "teamRegionName": "France",
            "seasonId": 0,
            "seasonName": null,
            "tournamentId": 22,
            "isOpta": true,
            "tournamentRegionId": 74,
            "tournamentRegionCode": "fr",
            "tournamentRegionName": "France",
            "regionCode": "fr",
            "tournamentName": "Ligue 1",
            "rating": 7.01,
            "ranking": 12,
            "apps": 7,
            "shotsPerGame": 15.571428571428571,
            "shotOnTargetPerGame": 6.2857142857142856,
            "dribbleWonPerGame": 11.285714285714286,
            "foulGivenPerGame": 13.142857142857142
        },
        {
            "name": "Napoli",
            "teamId": 276,
            "teamName": "Napoli",
            "teamRegionName": "Italie",
            "seasonId": 0,
            "seasonName": null,
            "tournamentId": 5,
            "isOpta": true,
            "tournamentRegionId": 108,
            "tournamentRegionCode": "it",
            "tournamentRegionName": "Italie",
            "regionCode": "it",
            "tournamentName": "Serie A",
            "rating": 6.66,
            "ranking": 13,
            "apps": 6,
            "shotsPerGame": 20.166666666666668,
            "shotOnTargetPerGame": 5.666666666666667,
            "dribbleWonPerGame": 11.166666666666666,
            "foulGivenPerGame": 10.0
        },
        {
            "name": "Udinese",
            "teamId": 86,
            "teamName": "Udinese",
            "teamRegionName": "Italie",
            "seasonId": 0,
            "seasonName": null,
            "tournamentId": 5,
            "isOpta": true,
            "tournamentRegionId": 108,
            "tournamentRegionCode": "it",
            "tournamentRegionName": "Italie",
            "regionCode": "it",
            "tournamentName": "Serie A",
            "rating": 6.43,
            "ranking": 14,
            "apps": 6,
            "shotsPerGame": 14.333333333333334,
            "shotOnTargetPerGame": 5.166666666666667,
            "dribbleWonPerGame": 11.0,
            "foulGivenPerGame": 11.333333333333334
        },
        {
            "name": "Brest",
            "teamId": 2332,
            "teamName": "Brest",
            "teamRegionName": "France",
            "seasonId": 0,
            "seasonName": null,
            "tournamentId": 22,
            "isOpta": true,
            "tournamentRegionId": 74,
            "tournamentRegionCode": "fr",
            "tournamentRegionName": "France",
            "regionCode": "fr",
            "tournamentName": "Ligue 1",
            "rating": 6.74,
            "ranking": 15,
            "apps": 5,
            "shotsPerGame": 17.8,
            "shotOnTargetPerGame": 5.6,
            "dribbleWonPerGame": 11.0,
            "foulGivenPerGame": 13.4
        },
        {
            "name": "Lorient",
            "teamId": 146,
            "teamName": "Lorient",
            "teamRegionName": "France",
            "seasonId": 0,
            "seasonName": null,
            "tournamentId": 22,
            "isOpta": true,
            "tournamentRegionId": 74,
            "tournamentRegionCode": "fr",
            "tournamentRegionName": "France",
            "regionCode": "fr",
            "tournamentName": "Ligue 1",
            "rating": 6.73,
            "ranking": 16,
            "apps": 7,
            "shotsPerGame": 9.2857142857142865,
            "shotOnTargetPerGame": 3.5714285714285716,
            "dribbleWonPerGame": 10.857142857142858,
            "foulGivenPerGame": 12.0
        },
        {
            "name": "Tottenham",
            "teamId": 30,
            "teamName": "Tottenham",
            "teamRegionName": "Angleterre",
            "seasonId": 0,
            "seasonName": null,
            "tournamentId": 2,
            "isOpta": true,
            "tournamentRegionId": 252,
            "tournamentRegionCode": "gb-eng",
            "tournamentRegionName": "Angleterre",
            "regionCode": "gb-eng",
            "tournamentName": "Premier League",
            "rating": 6.76,
            "ranking": 17,
            "apps": 6,
            "shotsPerGame": 18.333333333333332,
            "shotOnTargetPerGame": 7.0,
            "dribbleWonPerGame": 10.833333333333334,
            "foulGivenPerGame": 13.833333333333334
        },
        {
            "name": "Real Betis",
            "teamId": 54,
            "teamName": "Real Betis",
            "teamRegionName": "Espagne",
            "seasonId": 0,
            "seasonName": null,
            "tournamentId": 4,
            "isOpta": true,
            "tournamentRegionId": 206,
            "tournamentRegionCode": "es",
            "tournamentRegionName": "Espagne",
            "regionCode": "es",
            "tournamentName": "LaLiga",
            "rating": 6.82,
            "ranking": 18,
            "apps": 7,
            "shotsPerGame": 15.285714285714286,
            "shotOnTargetPerGame": 4.2857142857142856,
            "dribbleWonPerGame": 10.714285714285714,
            "foulGivenPerGame": 14.142857142857142
        },
        {
            "name": "Lyon",
            "teamId": 228,
            "teamName": "Lyon",
            "teamRegionName": "France",
            "seasonId": 0,
            "seasonName": null,
            "tournamentId": 22,
            "isOpta": true,
            "tournamentRegionId": 74,
            "tournamentRegionCode": "fr",
            "tournamentRegionName": "France",
            "regionCode": "fr",
            "tournamentName": "Ligue 1",
            "rating": 6.47,
            "ranking": 19,
            "apps": 7,
            "shotsPerGame": 15.571428571428571,
            "shotOnTargetPerGame": 5.5714285714285712,
            "dribbleWonPerGame": 10.714285714285714,
            "foulGivenPerGame": 9.1428571428571423
        },
        {
            "name": "Granada",
            "teamId": 925,
            "teamName": "Granada",
            "teamRegionName": "Espagne",
            "seasonId": 0,
            "seasonName": null,
            "tournamentId": 4,
            "isOpta": true,
            "tournamentRegionId": 206,
            "tournamentRegionCode": "es",
            "tournamentRegionName": "Espagne",
            "regionCode": "es",
            "tournamentName": "LaLiga",
            "rating": 6.49,
            "ranking": 20,
            "apps": 7,
            "shotsPerGame": 13.0,
            "shotOnTargetPerGame": 5.5714285714285712,
            "dribbleWonPerGame": 10.571428571428571,
            "foulGivenPerGame": 13.142857142857142
        }
    ],
    "paging": {
        "currentPage": 1,
        "totalPages": 5,
        "resultsPerPage": 20,
        "totalResults": 96,
        "firstRecordIndex": 1,
        "lastRecordIndex": 20
    },
    "statColumns": [
        "apps",
        "shotsPerGame",
        "shotOnTargetPerGame",
        "dribbleWonPerGame",
        "foulGivenPerGame"
    ]
}