{
    "teamTableStats": [
        {
            "name": "Tottenham",
            "teamId": 30,
            "teamName": "Tottenham",
            "teamRegionName": "Angleterre",
            "seasonId": 0,
            "seasonName": null,
            "tournamentId": 2,
            "isOpta": true,
            "tournamentRegionId": 252,
            "tournamentRegionCode": "gb-eng",
            "tournamentRegionName": "Angleterre",
            "regionCode": "gb-eng",
            "tournamentName": "Premier League",
            "rating": 6.8,
            "ranking": 1,
            "apps": 13,
            "tacklePerGame": 20.23076923076923,
            "interceptionPerGame": 8.615384615384615,
            "foulsPerGame": 11.615384615384615,
            "offsideGivenPerGame": 2.3846153846153846,
            "shotsConcededPerGame": 13.538461538461538
        },
        {
            "name": "Everton",
            "teamId": 31,
            "teamName": "Everton",
            "teamRegionName": "Angleterre",
            "seasonId": 0,
            "seasonName": null,
            "tournamentId": 2,
            "isOpta": true,
            "tournamentRegionId": 252,
            "tournamentRegionCode": "gb-eng",
            "tournamentRegionName": "Angleterre",
            "regionCode": "gb-eng",
            "tournamentName": "Premier League",
            "rating": 6.63,
            "ranking": 2,
            "apps": 13,
            "tacklePerGame": 20.076923076923077,
            "interceptionPerGame": 9.3076923076923084,
            "foulsPerGame": 12.0,
            "offsideGivenPerGame": 1.6923076923076923,
            "shotsConcededPerGame": 12.153846153846153
        },
        {
            "name": "Brest",
            "teamId": 2332,
            "teamName": "Brest",
            "teamRegionName": "France",
            "seasonId": 0,
            "seasonName": null,
            "tournamentId": 22,
            "isOpta": true,
            "tournamentRegionId": 74,
            "tournamentRegionCode": "fr",
            "tournamentRegionName": "France",
            "regionCode": "fr",
            "tournamentName": "Ligue 1",
            "rating": 6.67,
            "ranking": 3,
            "apps": 12,
            "tacklePerGame": 19.916666666666668,
            "interceptionPerGame": 9.75,
            "foulsPerGame": 13.333333333333334,
            "offsideGivenPerGame": 0.91666666666666663,
            "shotsConcededPerGame": 11.5
        },
        {
            "name": "Sheff Utd",
            "teamId": 163,
            "teamName": "Sheffield United",
            "teamRegionName": "Angleterre",
            "seasonId": 0,
            "seasonName": null,
            "tournamentId": 2,
            "isOpta": true,
            "tournamentRegionId": 252,
            "tournamentRegionCode": "gb-eng",
            "tournamentRegionName": "Angleterre",
            "regionCode": "gb-eng",
            "tournamentName": "Premier League",
            "rating": 6.34,
            "ranking": 4,
            "apps": 13,
            "tacklePerGame": 19.76923076923077,
            "interceptionPerGame": 9.1538461538461533,
            "foulsPerGame": 11.846153846153847,
            "offsideGivenPerGame": 1.9230769230769231,
            "shotsConcededPerGame": 19.0
        },
        {
            "name": "Valencia",
            "teamId": 55,
            "teamName": "Valencia",
            "teamRegionName": "Espagne",
            "seasonId": 0,
            "seasonName": null,
            "tournamentId": 4,
            "isOpta": true,
            "tournamentRegionId": 206,
            "tournamentRegionCode": "es",
            "tournamentRegionName": "Espagne",
            "regionCode": "es",
            "tournamentName": "LaLiga",
            "rating": 6.57,
            "ranking": 5,
            "apps": 14,
            "tacklePerGame": 19.642857142857142,
            "interceptionPerGame": 9.5,
            "foulsPerGame": 13.785714285714286,
            "offsideGivenPerGame": 1.2857142857142858,
            "shotsConcededPerGame": 9.7142857142857135
        },
        {
            "name": "Sevilla",
            "teamId": 67,
            "teamName": "Sevilla",
            "teamRegionName": "Espagne",
            "seasonId": 0,
            "seasonName": null,
            "tournamentId": 4,
            "isOpta": true,
            "tournamentRegionId": 206,
            "tournamentRegionCode": "es",
            "tournamentRegionName": "Espagne",
            "regionCode": "es",
            "tournamentName": "LaLiga",
            "rating": 6.66,
            "ranking": 6,
            "apps": 13,
            "tacklePerGame": 19.615384615384617,
            "interceptionPerGame": 8.4615384615384617,
            "foulsPerGame": 12.923076923076923,
            "offsideGivenPerGame": 2.6923076923076925,
            "shotsConcededPerGame": 12.384615384615385
        },
        {
            "name": "Monaco",
            "teamId": 248,
            "teamName": "Monaco",
            "teamRegionName": "France",
            "seasonId": 0,
            "seasonName": null,
            "tournamentId": 22,
            "isOpta": true,
            "tournamentRegionId": 74,
            "tournamentRegionCode": "fr",
            "tournamentRegionName": "France",
            "regionCode": "fr",
            "tournamentName": "Ligue 1",
            "rating": 6.78,
            "ranking": 7,
            "apps": 13,
            "tacklePerGame": 19.53846153846154,
            "interceptionPerGame": 11.153846153846153,
            "foulsPerGame": 15.23076923076923,
            "offsideGivenPerGame": 2.6923076923076925,
            "shotsConcededPerGame": 10.076923076923077
        },
        {
            "name": "Strasbourg",
            "teamId": 148,
            "teamName": "Strasbourg",
            "teamRegionName": "France",
            "seasonId": 0,
            "seasonName": null,
            "tournamentId": 22,
            "isOpta": true,
            "tournamentRegionId": 74,
            "tournamentRegionCode": "fr",
            "tournamentRegionName": "France",
            "regionCode": "fr",
            "tournamentName": "Ligue 1",
            "rating": 6.5,
            "ranking": 8,
            "apps": 12,
            "tacklePerGame": 19.5,
            "interceptionPerGame": 10.583333333333334,
            "foulsPerGame": 13.833333333333334,
            "offsideGivenPerGame": 0.83333333333333337,
            "shotsConcededPerGame": 13.083333333333334
        },
        {
            "name": "Las Palmas",
            "teamId": 838,
            "teamName": "Las Palmas",
            "teamRegionName": "Espagne",
            "seasonId": 0,
            "seasonName": null,
            "tournamentId": 4,
            "isOpta": true,
            "tournamentRegionId": 206,
            "tournamentRegionCode": "es",
            "tournamentRegionName": "Espagne",
            "regionCode": "es",
            "tournamentName": "LaLiga",
            "rating": 6.57,
            "ranking": 9,
            "apps": 14,
            "tacklePerGame": 19.5,
            "interceptionPerGame": 7.9285714285714288,
            "foulsPerGame": 11.0,
            "offsideGivenPerGame": 2.0714285714285716,
            "shotsConcededPerGame": 11.857142857142858
        },
        {
            "name": "Crystal Palace",
            "teamId": 162,
            "teamName": "Crystal Palace",
            "teamRegionName": "Angleterre",
            "seasonId": 0,
            "seasonName": null,
            "tournamentId": 2,
            "isOpta": true,
            "tournamentRegionId": 252,
            "tournamentRegionCode": "gb-eng",
            "tournamentRegionName": "Angleterre",
            "regionCode": "gb-eng",
            "tournamentName": "Premier League",
            "rating": 6.71,
            "ranking": 10,
            "apps": 13,
            "tacklePerGame": 19.46153846153846,
            "interceptionPerGame": 8.6923076923076916,
            "foulsPerGame": 11.538461538461538,
            "offsideGivenPerGame": 1.1538461538461537,
            "shotsConcededPerGame": 12.307692307692308
        },
        {
            "name": "Wolves",
            "teamId": 161,
            "teamName": "Wolves",
            "teamRegionName": "Angleterre",
            "seasonId": 0,
            "seasonName": null,
            "tournamentId": 2,
            "isOpta": true,
            "tournamentRegionId": 252,
            "tournamentRegionCode": "gb-eng",
            "tournamentRegionName": "Angleterre",
            "regionCode": "gb-eng",
            "tournamentName": "Premier League",
            "rating": 6.63,
            "ranking": 11,
            "apps": 13,
            "tacklePerGame": 19.153846153846153,
            "interceptionPerGame": 8.6923076923076916,
            "foulsPerGame": 13.76923076923077,
            "offsideGivenPerGame": 2.1538461538461537,
            "shotsConcededPerGame": 14.461538461538462
        },
        {
            "name": "Reims",
            "teamId": 950,
            "teamName": "Reims",
            "teamRegionName": "France",
            "seasonId": 0,
            "seasonName": null,
            "tournamentId": 22,
            "isOpta": true,
            "tournamentRegionId": 74,
            "tournamentRegionCode": "fr",
            "tournamentRegionName": "France",
            "regionCode": "fr",
            "tournamentName": "Ligue 1",
            "rating": 6.67,
            "ranking": 12,
            "apps": 13,
            "tacklePerGame": 19.153846153846153,
            "interceptionPerGame": 10.692307692307692,
            "foulsPerGame": 14.615384615384615,
            "offsideGivenPerGame": 3.3076923076923075,
            "shotsConcededPerGame": 13.23076923076923
        },
        {
            "name": "PSG",
            "teamId": 304,
            "teamName": "Paris Saint-Germain",
            "teamRegionName": "France",
            "seasonId": 0,
            "seasonName": null,
            "tournamentId": 22,
            "isOpta": true,
            "tournamentRegionId": 74,
            "tournamentRegionCode": "fr",
            "tournamentRegionName": "France",
            "regionCode": "fr",
            "tournamentName": "Ligue 1",
            "rating": 7.04,
            "ranking": 13,
            "apps": 13,
            "tacklePerGame": 18.923076923076923,
            "interceptionPerGame": 7.9230769230769234,
            "foulsPerGame": 9.8461538461538467,
            "offsideGivenPerGame": 1.4615384615384615,
            "shotsConcededPerGame": 12.076923076923077
        },
        {
            "name": "Mallorca",
            "teamId": 51,
            "teamName": "Mallorca",
            "teamRegionName": "Espagne",
            "seasonId": 0,
            "seasonName": null,
            "tournamentId": 4,
            "isOpta": true,
            "tournamentRegionId": 206,
            "tournamentRegionCode": "es",
            "tournamentRegionName": "Espagne",
            "regionCode": "es",
            "tournamentName": "LaLiga",
            "rating": 6.49,
            "ranking": 14,
            "apps": 14,
            "tacklePerGame": 18.642857142857142,
            "interceptionPerGame": 9.2142857142857135,
            "foulsPerGame": 16.5,
            "offsideGivenPerGame": 3.7142857142857144,
            "shotsConcededPerGame": 13.571428571428571
        },
        {
            "name": "Bochum",
            "teamId": 109,
            "teamName": "Bochum",
            "teamRegionName": "Allemagne",
            "seasonId": 0,
            "seasonName": null,
            "tournamentId": 3,
            "isOpta": true,
            "tournamentRegionId": 81,
            "tournamentRegionCode": "de",
            "tournamentRegionName": "Allemagne",
            "regionCode": "de",
            "tournamentName": "Bundesliga",
            "rating": 6.51,
            "ranking": 15,
            "apps": 12,
            "tacklePerGame": 18.5,
            "interceptionPerGame": 9.5833333333333339,
            "foulsPerGame": 13.5,
            "offsideGivenPerGame": 2.25,
            "shotsConcededPerGame": 15.416666666666666
        },
        {
            "name": "Nottingham Forest",
            "teamId": 174,
            "teamName": "Nottingham Forest",
            "teamRegionName": "Angleterre",
            "seasonId": 0,
            "seasonName": null,
            "tournamentId": 2,
            "isOpta": true,
            "tournamentRegionId": 252,
            "tournamentRegionCode": "gb-eng",
            "tournamentRegionName": "Angleterre",
            "regionCode": "gb-eng",
            "tournamentName": "Premier League",
            "rating": 6.57,
            "ranking": 16,
            "apps": 13,
            "tacklePerGame": 18.46153846153846,
            "interceptionPerGame": 9.384615384615385,
            "foulsPerGame": 11.0,
            "offsideGivenPerGame": 2.4615384615384617,
            "shotsConcededPerGame": 13.692307692307692
        },
        {
            "name": "Bournemouth",
            "teamId": 183,
            "teamName": "Bournemouth",
            "teamRegionName": "Angleterre",
            "seasonId": 0,
            "seasonName": null,
            "tournamentId": 2,
            "isOpta": true,
            "tournamentRegionId": 252,
            "tournamentRegionCode": "gb-eng",
            "tournamentRegionName": "Angleterre",
            "regionCode": "gb-eng",
            "tournamentName": "Premier League",
            "rating": 6.47,
            "ranking": 17,
            "apps": 13,
            "tacklePerGame": 18.46153846153846,
            "interceptionPerGame": 8.384615384615385,
            "foulsPerGame": 12.461538461538462,
            "offsideGivenPerGame": 1.3076923076923077,
            "shotsConcededPerGame": 16.384615384615383
        },
        {
            "name": "Montpellier",
            "teamId": 311,
            "teamName": "Montpellier",
            "teamRegionName": "France",
            "seasonId": 0,
            "seasonName": null,
            "tournamentId": 22,
            "isOpta": true,
            "tournamentRegionId": 74,
            "tournamentRegionCode": "fr",
            "tournamentRegionName": "France",
            "regionCode": "fr",
            "tournamentName": "Ligue 1",
            "rating": 6.66,
            "ranking": 18,
            "apps": 13,
            "tacklePerGame": 18.23076923076923,
            "interceptionPerGame": 8.9230769230769234,
            "foulsPerGame": 12.153846153846153,
            "offsideGivenPerGame": 2.3076923076923075,
            "shotsConcededPerGame": 13.923076923076923
        },
        {
            "name": "FC Koln",
            "teamId": 282,
            "teamName": "FC Koln",
            "teamRegionName": "Allemagne",
            "seasonId": 0,
            "seasonName": null,
            "tournamentId": 3,
            "isOpta": true,
            "tournamentRegionId": 81,
            "tournamentRegionCode": "de",
            "tournamentRegionName": "Allemagne",
            "regionCode": "de",
            "tournamentName": "Bundesliga",
            "rating": 6.46,
            "ranking": 19,
            "apps": 12,
            "tacklePerGame": 18.166666666666668,
            "interceptionPerGame": 10.25,
            "foulsPerGame": 11.75,
            "offsideGivenPerGame": 1.6666666666666667,
            "shotsConcededPerGame": 16.75
        },
        {
            "name": "Clermont Foot",
            "teamId": 941,
            "teamName": "Clermont Foot",
            "teamRegionName": "France",
            "seasonId": 0,
            "seasonName": null,
            "tournamentId": 22,
            "isOpta": true,
            "tournamentRegionId": 74,
            "tournamentRegionCode": "fr",
            "tournamentRegionName": "France",
            "regionCode": "fr",
            "tournamentName": "Ligue 1",
            "rating": 6.53,
            "ranking": 20,
            "apps": 13,
            "tacklePerGame": 18.076923076923077,
            "interceptionPerGame": 10.23076923076923,
            "foulsPerGame": 12.153846153846153,
            "offsideGivenPerGame": 1.6923076923076923,
            "shotsConcededPerGame": 14.76923076923077
        }
    ],
    "paging": {
        "currentPage": 1,
        "totalPages": 5,
        "resultsPerPage": 20,
        "totalResults": 96,
        "firstRecordIndex": 1,
        "lastRecordIndex": 20
    },
    "statColumns": [
        "apps",
        "shotsConcededPerGame",
        "tacklePerGame",
        "interceptionPerGame",
        "foulsPerGame",
        "offsideGivenPerGame"
    ]
}