{
    "teamTableStats": [
        {
            "name": "Lorient",
            "teamId": 146,
            "teamName": "Lorient",
            "teamRegionName": "France",
            "seasonId": 0,
            "seasonName": null,
            "tournamentId": 22,
            "isOpta": true,
            "tournamentRegionId": 74,
            "tournamentRegionCode": "fr",
            "tournamentRegionName": "France",
            "regionCode": "fr",
            "tournamentName": "Ligue 1",
            "rating": 6.73,
            "ranking": 1,
            "apps": 7,
            "tacklePerGame": 20.857142857142858,
            "interceptionPerGame": 12.142857142857142,
            "foulsPerGame": 11.714285714285714,
            "offsideGivenPerGame": 1.8571428571428572,
            "shotsConcededPerGame": 17.285714285714285
        },
        {
            "name": "Sevilla",
            "teamId": 67,
            "teamName": "Sevilla",
            "teamRegionName": "Espagne",
            "seasonId": 0,
            "seasonName": null,
            "tournamentId": 4,
            "isOpta": true,
            "tournamentRegionId": 206,
            "tournamentRegionCode": "es",
            "tournamentRegionName": "Espagne",
            "regionCode": "es",
            "tournamentName": "LaLiga",
            "rating": 6.71,
            "ranking": 2,
            "apps": 7,
            "tacklePerGame": 20.714285714285715,
            "interceptionPerGame": 8.2857142857142865,
            "foulsPerGame": 14.428571428571429,
            "offsideGivenPerGame": 2.8571428571428572,
            "shotsConcededPerGame": 11.0
        },
        {
            "name": "Everton",
            "teamId": 31,
            "teamName": "Everton",
            "teamRegionName": "Angleterre",
            "seasonId": 0,
            "seasonName": null,
            "tournamentId": 2,
            "isOpta": true,
            "tournamentRegionId": 252,
            "tournamentRegionCode": "gb-eng",
            "tournamentRegionName": "Angleterre",
            "regionCode": "gb-eng",
            "tournamentName": "Premier League",
            "rating": 6.57,
            "ranking": 3,
            "apps": 7,
            "tacklePerGame": 20.0,
            "interceptionPerGame": 9.0,
            "foulsPerGame": 11.571428571428571,
            "offsideGivenPerGame": 2.0,
            "shotsConcededPerGame": 9.8571428571428577
        },
        {
            "name": "Roma",
            "teamId": 84,
            "teamName": "Roma",
            "teamRegionName": "Italie",
            "seasonId": 0,
            "seasonName": null,
            "tournamentId": 5,
            "isOpta": true,
            "tournamentRegionId": 108,
            "tournamentRegionCode": "it",
            "tournamentRegionName": "Italie",
            "regionCode": "it",
            "tournamentName": "Serie A",
            "rating": 6.84,
            "ranking": 4,
            "apps": 7,
            "tacklePerGame": 20.0,
            "interceptionPerGame": 6.8571428571428568,
            "foulsPerGame": 12.857142857142858,
            "offsideGivenPerGame": 1.8571428571428572,
            "shotsConcededPerGame": 8.5714285714285712
        },
        {
            "name": "Lyon",
            "teamId": 228,
            "teamName": "Lyon",
            "teamRegionName": "France",
            "seasonId": 0,
            "seasonName": null,
            "tournamentId": 22,
            "isOpta": true,
            "tournamentRegionId": 74,
            "tournamentRegionCode": "fr",
            "tournamentRegionName": "France",
            "regionCode": "fr",
            "tournamentName": "Ligue 1",
            "rating": 6.47,
            "ranking": 5,
            "apps": 7,
            "tacklePerGame": 20.0,
            "interceptionPerGame": 10.142857142857142,
            "foulsPerGame": 16.142857142857142,
            "offsideGivenPerGame": 1.7142857142857142,
            "shotsConcededPerGame": 12.428571428571429
        },
        {
            "name": "Strasbourg",
            "teamId": 148,
            "teamName": "Strasbourg",
            "teamRegionName": "France",
            "seasonId": 0,
            "seasonName": null,
            "tournamentId": 22,
            "isOpta": true,
            "tournamentRegionId": 74,
            "tournamentRegionCode": "fr",
            "tournamentRegionName": "France",
            "regionCode": "fr",
            "tournamentName": "Ligue 1",
            "rating": 6.62,
            "ranking": 6,
            "apps": 7,
            "tacklePerGame": 19.857142857142858,
            "interceptionPerGame": 10.0,
            "foulsPerGame": 13.857142857142858,
            "offsideGivenPerGame": 0.5714285714285714,
            "shotsConcededPerGame": 13.0
        },
        {
            "name": "Tottenham",
            "teamId": 30,
            "teamName": "Tottenham",
            "teamRegionName": "Angleterre",
            "seasonId": 0,
            "seasonName": null,
            "tournamentId": 2,
            "isOpta": true,
            "tournamentRegionId": 252,
            "tournamentRegionCode": "gb-eng",
            "tournamentRegionName": "Angleterre",
            "regionCode": "gb-eng",
            "tournamentName": "Premier League",
            "rating": 6.76,
            "ranking": 7,
            "apps": 6,
            "tacklePerGame": 19.833333333333332,
            "interceptionPerGame": 8.1666666666666661,
            "foulsPerGame": 11.0,
            "offsideGivenPerGame": 3.1666666666666665,
            "shotsConcededPerGame": 13.833333333333334
        },
        {
            "name": "Mallorca",
            "teamId": 51,
            "teamName": "Mallorca",
            "teamRegionName": "Espagne",
            "seasonId": 0,
            "seasonName": null,
            "tournamentId": 4,
            "isOpta": true,
            "tournamentRegionId": 206,
            "tournamentRegionCode": "es",
            "tournamentRegionName": "Espagne",
            "regionCode": "es",
            "tournamentName": "LaLiga",
            "rating": 6.57,
            "ranking": 8,
            "apps": 6,
            "tacklePerGame": 19.833333333333332,
            "interceptionPerGame": 8.5,
            "foulsPerGame": 14.0,
            "offsideGivenPerGame": 5.333333333333333,
            "shotsConcededPerGame": 10.166666666666666
        },
        {
            "name": "Wolves",
            "teamId": 161,
            "teamName": "Wolves",
            "teamRegionName": "Angleterre",
            "seasonId": 0,
            "seasonName": null,
            "tournamentId": 2,
            "isOpta": true,
            "tournamentRegionId": 252,
            "tournamentRegionCode": "gb-eng",
            "tournamentRegionName": "Angleterre",
            "regionCode": "gb-eng",
            "tournamentName": "Premier League",
            "rating": 6.6,
            "ranking": 9,
            "apps": 6,
            "tacklePerGame": 19.666666666666668,
            "interceptionPerGame": 9.3333333333333339,
            "foulsPerGame": 15.5,
            "offsideGivenPerGame": 2.6666666666666665,
            "shotsConcededPerGame": 15.333333333333334
        },
        {
            "name": "Bournemouth",
            "teamId": 183,
            "teamName": "Bournemouth",
            "teamRegionName": "Angleterre",
            "seasonId": 0,
            "seasonName": null,
            "tournamentId": 2,
            "isOpta": true,
            "tournamentRegionId": 252,
            "tournamentRegionCode": "gb-eng",
            "tournamentRegionName": "Angleterre",
            "regionCode": "gb-eng",
            "tournamentName": "Premier League",
            "rating": 6.54,
            "ranking": 10,
            "apps": 7,
            "tacklePerGame": 19.142857142857142,
            "interceptionPerGame": 9.2857142857142865,
            "foulsPerGame": 12.428571428571429,
            "offsideGivenPerGame": 1.2857142857142858,
            "shotsConcededPerGame": 13.857142857142858
        },
        {
            "name": "Clermont Foot",
            "teamId": 941,
            "teamName": "Clermont Foot",
            "teamRegionName": "France",
            "seasonId": 0,
            "seasonName": null,
            "tournamentId": 22,
            "isOpta": true,
            "tournamentRegionId": 74,
            "tournamentRegionCode": "fr",
            "tournamentRegionName": "France",
            "regionCode": "fr",
            "tournamentName": "Ligue 1",
            "rating": 6.49,
            "ranking": 11,
            "apps": 7,
            "tacklePerGame": 19.0,
            "interceptionPerGame": 9.5714285714285712,
            "foulsPerGame": 12.428571428571429,
            "offsideGivenPerGame": 1.5714285714285714,
            "shotsConcededPerGame": 13.0
        },
        {
            "name": "Sheff Utd",
            "teamId": 163,
            "teamName": "Sheffield United",
            "teamRegionName": "Angleterre",
            "seasonId": 0,
            "seasonName": null,
            "tournamentId": 2,
            "isOpta": true,
            "tournamentRegionId": 252,
            "tournamentRegionCode": "gb-eng",
            "tournamentRegionName": "Angleterre",
            "regionCode": "gb-eng",
            "tournamentName": "Premier League",
            "rating": 6.34,
            "ranking": 12,
            "apps": 7,
            "tacklePerGame": 18.857142857142858,
            "interceptionPerGame": 9.1428571428571423,
            "foulsPerGame": 11.857142857142858,
            "offsideGivenPerGame": 2.0,
            "shotsConcededPerGame": 19.857142857142858
        },
        {
            "name": "Monaco",
            "teamId": 248,
            "teamName": "Monaco",
            "teamRegionName": "France",
            "seasonId": 0,
            "seasonName": null,
            "tournamentId": 22,
            "isOpta": true,
            "tournamentRegionId": 74,
            "tournamentRegionCode": "fr",
            "tournamentRegionName": "France",
            "regionCode": "fr",
            "tournamentName": "Ligue 1",
            "rating": 6.87,
            "ranking": 13,
            "apps": 6,
            "tacklePerGame": 18.833333333333332,
            "interceptionPerGame": 11.166666666666666,
            "foulsPerGame": 16.166666666666668,
            "offsideGivenPerGame": 2.1666666666666665,
            "shotsConcededPerGame": 10.0
        },
        {
            "name": "Luton",
            "teamId": 95,
            "teamName": "Luton",
            "teamRegionName": "Angleterre",
            "seasonId": 0,
            "seasonName": null,
            "tournamentId": 2,
            "isOpta": true,
            "tournamentRegionId": 252,
            "tournamentRegionCode": "gb-eng",
            "tournamentRegionName": "Angleterre",
            "regionCode": "gb-eng",
            "tournamentName": "Premier League",
            "rating": 6.62,
            "ranking": 14,
            "apps": 6,
            "tacklePerGame": 18.666666666666668,
            "interceptionPerGame": 9.1666666666666661,
            "foulsPerGame": 12.0,
            "offsideGivenPerGame": 1.6666666666666667,
            "shotsConcededPerGame": 13.5
        },
        {
            "name": "Crystal Palace",
            "teamId": 162,
            "teamName": "Crystal Palace",
            "teamRegionName": "Angleterre",
            "seasonId": 0,
            "seasonName": null,
            "tournamentId": 2,
            "isOpta": true,
            "tournamentRegionId": 252,
            "tournamentRegionCode": "gb-eng",
            "tournamentRegionName": "Angleterre",
            "regionCode": "gb-eng",
            "tournamentName": "Premier League",
            "rating": 6.67,
            "ranking": 15,
            "apps": 6,
            "tacklePerGame": 18.666666666666668,
            "interceptionPerGame": 8.0,
            "foulsPerGame": 11.833333333333334,
            "offsideGivenPerGame": 1.5,
            "shotsConcededPerGame": 11.666666666666666
        },
        {
            "name": "Mainz",
            "teamId": 219,
            "teamName": "Mainz 05",
            "teamRegionName": "Allemagne",
            "seasonId": 0,
            "seasonName": null,
            "tournamentId": 3,
            "isOpta": true,
            "tournamentRegionId": 81,
            "tournamentRegionCode": "de",
            "tournamentRegionName": "Allemagne",
            "regionCode": "de",
            "tournamentName": "Bundesliga",
            "rating": 6.47,
            "ranking": 16,
            "apps": 5,
            "tacklePerGame": 18.6,
            "interceptionPerGame": 12.0,
            "foulsPerGame": 14.6,
            "offsideGivenPerGame": 2.4,
            "shotsConcededPerGame": 10.2
        },
        {
            "name": "Udinese",
            "teamId": 86,
            "teamName": "Udinese",
            "teamRegionName": "Italie",
            "seasonId": 0,
            "seasonName": null,
            "tournamentId": 5,
            "isOpta": true,
            "tournamentRegionId": 108,
            "tournamentRegionCode": "it",
            "tournamentRegionName": "Italie",
            "regionCode": "it",
            "tournamentName": "Serie A",
            "rating": 6.43,
            "ranking": 17,
            "apps": 6,
            "tacklePerGame": 18.5,
            "interceptionPerGame": 6.166666666666667,
            "foulsPerGame": 12.666666666666666,
            "offsideGivenPerGame": 1.3333333333333333,
            "shotsConcededPerGame": 9.1666666666666661
        },
        {
            "name": "Eintracht Frankfurt",
            "teamId": 45,
            "teamName": "Eintracht Frankfurt",
            "teamRegionName": "Allemagne",
            "seasonId": 0,
            "seasonName": null,
            "tournamentId": 3,
            "isOpta": true,
            "tournamentRegionId": 81,
            "tournamentRegionCode": "de",
            "tournamentRegionName": "Allemagne",
            "regionCode": "de",
            "tournamentName": "Bundesliga",
            "rating": 6.62,
            "ranking": 18,
            "apps": 6,
            "tacklePerGame": 18.166666666666668,
            "interceptionPerGame": 7.833333333333333,
            "foulsPerGame": 11.666666666666666,
            "offsideGivenPerGame": 1.5,
            "shotsConcededPerGame": 9.3333333333333339
        },
        {
            "name": "AC Milan",
            "teamId": 80,
            "teamName": "AC Milan",
            "teamRegionName": "Italie",
            "seasonId": 0,
            "seasonName": null,
            "tournamentId": 5,
            "isOpta": true,
            "tournamentRegionId": 108,
            "tournamentRegionCode": "it",
            "tournamentRegionName": "Italie",
            "regionCode": "it",
            "tournamentName": "Serie A",
            "rating": 6.7,
            "ranking": 19,
            "apps": 6,
            "tacklePerGame": 17.833333333333332,
            "interceptionPerGame": 7.333333333333333,
            "foulsPerGame": 12.166666666666666,
            "offsideGivenPerGame": 1.0,
            "shotsConcededPerGame": 13.0
        },
        {
            "name": "Nottingham Forest",
            "teamId": 174,
            "teamName": "Nottingham Forest",
            "teamRegionName": "Angleterre",
            "seasonId": 0,
            "seasonName": null,
            "tournamentId": 2,
            "isOpta": true,
            "tournamentRegionId": 252,
            "tournamentRegionCode": "gb-eng",
            "tournamentRegionName": "Angleterre",
            "regionCode": "gb-eng",
            "tournamentName": "Premier League",
            "rating": 6.6899999999999995,
            "ranking": 20,
            "apps": 6,
            "tacklePerGame": 17.833333333333332,
            "interceptionPerGame": 9.1666666666666661,
            "foulsPerGame": 9.5,
            "offsideGivenPerGame": 3.0,
            "shotsConcededPerGame": 12.0
        }
    ],
    "paging": {
        "currentPage": 1,
        "totalPages": 5,
        "resultsPerPage": 20,
        "totalResults": 96,
        "firstRecordIndex": 1,
        "lastRecordIndex": 20
    },
    "statColumns": [
        "apps",
        "shotsConcededPerGame",
        "tacklePerGame",
        "interceptionPerGame",
        "foulsPerGame",
        "offsideGivenPerGame"
    ]
}