{
    "teamTableStats": [
        {
            "name": "Valencia",
            "teamId": 55,
            "teamName": "Valencia",
            "teamRegionName": "Espagne",
            "seasonId": 0,
            "seasonName": null,
            "tournamentId": 4,
            "isOpta": true,
            "tournamentRegionId": 206,
            "tournamentRegionCode": "es",
            "tournamentRegionName": "Espagne",
            "regionCode": "es",
            "tournamentName": "LaLiga",
            "rating": 6.5,
            "ranking": 1,
            "apps": 7,
            "tacklePerGame": 22.142857142857142,
            "interceptionPerGame": 9.0,
            "foulsPerGame": 13.142857142857142,
            "offsideGivenPerGame": 0.7142857142857143,
            "shotsConcededPerGame": 12.142857142857142
        },
        {
            "name": "Brest",
            "teamId": 2332,
            "teamName": "Brest",
            "teamRegionName": "France",
            "seasonId": 0,
            "seasonName": null,
            "tournamentId": 22,
            "isOpta": true,
            "tournamentRegionId": 74,
            "tournamentRegionCode": "fr",
            "tournamentRegionName": "France",
            "regionCode": "fr",
            "tournamentName": "Ligue 1",
            "rating": 6.61,
            "ranking": 2,
            "apps": 7,
            "tacklePerGame": 22.142857142857142,
            "interceptionPerGame": 10.0,
            "foulsPerGame": 12.285714285714286,
            "offsideGivenPerGame": 1.4285714285714286,
            "shotsConcededPerGame": 13.142857142857142
        },
        {
            "name": "Montpellier",
            "teamId": 311,
            "teamName": "Montpellier",
            "teamRegionName": "France",
            "seasonId": 0,
            "seasonName": null,
            "tournamentId": 22,
            "isOpta": true,
            "tournamentRegionId": 74,
            "tournamentRegionCode": "fr",
            "tournamentRegionName": "France",
            "regionCode": "fr",
            "tournamentName": "Ligue 1",
            "rating": 6.65,
            "ranking": 3,
            "apps": 6,
            "tacklePerGame": 21.666666666666668,
            "interceptionPerGame": 9.3333333333333339,
            "foulsPerGame": 12.166666666666666,
            "offsideGivenPerGame": 2.3333333333333335,
            "shotsConcededPerGame": 14.166666666666666
        },
        {
            "name": "Empoli",
            "teamId": 272,
            "teamName": "Empoli",
            "teamRegionName": "Italie",
            "seasonId": 0,
            "seasonName": null,
            "tournamentId": 5,
            "isOpta": true,
            "tournamentRegionId": 108,
            "tournamentRegionCode": "it",
            "tournamentRegionName": "Italie",
            "regionCode": "it",
            "tournamentName": "Serie A",
            "rating": 6.44,
            "ranking": 4,
            "apps": 6,
            "tacklePerGame": 21.333333333333332,
            "interceptionPerGame": 8.1666666666666661,
            "foulsPerGame": 11.166666666666666,
            "offsideGivenPerGame": 2.5,
            "shotsConcededPerGame": 18.166666666666668
        },
        {
            "name": "Las Palmas",
            "teamId": 838,
            "teamName": "Las Palmas",
            "teamRegionName": "Espagne",
            "seasonId": 0,
            "seasonName": null,
            "tournamentId": 4,
            "isOpta": true,
            "tournamentRegionId": 206,
            "tournamentRegionCode": "es",
            "tournamentRegionName": "Espagne",
            "regionCode": "es",
            "tournamentName": "LaLiga",
            "rating": 6.54,
            "ranking": 5,
            "apps": 8,
            "tacklePerGame": 21.25,
            "interceptionPerGame": 7.25,
            "foulsPerGame": 10.625,
            "offsideGivenPerGame": 2.0,
            "shotsConcededPerGame": 13.625
        },
        {
            "name": "Sheff Utd",
            "teamId": 163,
            "teamName": "Sheffield United",
            "teamRegionName": "Angleterre",
            "seasonId": 0,
            "seasonName": null,
            "tournamentId": 2,
            "isOpta": true,
            "tournamentRegionId": 252,
            "tournamentRegionCode": "gb-eng",
            "tournamentRegionName": "Angleterre",
            "regionCode": "gb-eng",
            "tournamentName": "Premier League",
            "rating": 6.34,
            "ranking": 6,
            "apps": 6,
            "tacklePerGame": 20.833333333333332,
            "interceptionPerGame": 9.1666666666666661,
            "foulsPerGame": 11.833333333333334,
            "offsideGivenPerGame": 1.8333333333333333,
            "shotsConcededPerGame": 18.0
        },
        {
            "name": "Tottenham",
            "teamId": 30,
            "teamName": "Tottenham",
            "teamRegionName": "Angleterre",
            "seasonId": 0,
            "seasonName": null,
            "tournamentId": 2,
            "isOpta": true,
            "tournamentRegionId": 252,
            "tournamentRegionCode": "gb-eng",
            "tournamentRegionName": "Angleterre",
            "regionCode": "gb-eng",
            "tournamentName": "Premier League",
            "rating": 6.84,
            "ranking": 7,
            "apps": 7,
            "tacklePerGame": 20.571428571428573,
            "interceptionPerGame": 9.0,
            "foulsPerGame": 12.142857142857142,
            "offsideGivenPerGame": 1.7142857142857142,
            "shotsConcededPerGame": 13.285714285714286
        },
        {
            "name": "PSG",
            "teamId": 304,
            "teamName": "Paris Saint-Germain",
            "teamRegionName": "France",
            "seasonId": 0,
            "seasonName": null,
            "tournamentId": 22,
            "isOpta": true,
            "tournamentRegionId": 74,
            "tournamentRegionCode": "fr",
            "tournamentRegionName": "France",
            "regionCode": "fr",
            "tournamentName": "Ligue 1",
            "rating": 7.07,
            "ranking": 8,
            "apps": 6,
            "tacklePerGame": 20.5,
            "interceptionPerGame": 7.833333333333333,
            "foulsPerGame": 10.5,
            "offsideGivenPerGame": 1.3333333333333333,
            "shotsConcededPerGame": 15.5
        },
        {
            "name": "Reims",
            "teamId": 950,
            "teamName": "Reims",
            "teamRegionName": "France",
            "seasonId": 0,
            "seasonName": null,
            "tournamentId": 22,
            "isOpta": true,
            "tournamentRegionId": 74,
            "tournamentRegionCode": "fr",
            "tournamentRegionName": "France",
            "regionCode": "fr",
            "tournamentName": "Ligue 1",
            "rating": 6.65,
            "ranking": 9,
            "apps": 7,
            "tacklePerGame": 20.285714285714285,
            "interceptionPerGame": 11.0,
            "foulsPerGame": 16.428571428571427,
            "offsideGivenPerGame": 3.5714285714285716,
            "shotsConcededPerGame": 14.0
        },
        {
            "name": "Everton",
            "teamId": 31,
            "teamName": "Everton",
            "teamRegionName": "Angleterre",
            "seasonId": 0,
            "seasonName": null,
            "tournamentId": 2,
            "isOpta": true,
            "tournamentRegionId": 252,
            "tournamentRegionCode": "gb-eng",
            "tournamentRegionName": "Angleterre",
            "regionCode": "gb-eng",
            "tournamentName": "Premier League",
            "rating": 6.7,
            "ranking": 10,
            "apps": 6,
            "tacklePerGame": 20.166666666666668,
            "interceptionPerGame": 9.6666666666666661,
            "foulsPerGame": 12.5,
            "offsideGivenPerGame": 1.3333333333333333,
            "shotsConcededPerGame": 14.833333333333334
        },
        {
            "name": "Bochum",
            "teamId": 109,
            "teamName": "Bochum",
            "teamRegionName": "Allemagne",
            "seasonId": 0,
            "seasonName": null,
            "tournamentId": 3,
            "isOpta": true,
            "tournamentRegionId": 81,
            "tournamentRegionCode": "de",
            "tournamentRegionName": "Allemagne",
            "regionCode": "de",
            "tournamentName": "Bundesliga",
            "rating": 6.44,
            "ranking": 11,
            "apps": 7,
            "tacklePerGame": 20.142857142857142,
            "interceptionPerGame": 8.1428571428571423,
            "foulsPerGame": 12.428571428571429,
            "offsideGivenPerGame": 2.2857142857142856,
            "shotsConcededPerGame": 16.571428571428573
        },
        {
            "name": "Crystal Palace",
            "teamId": 162,
            "teamName": "Crystal Palace",
            "teamRegionName": "Angleterre",
            "seasonId": 0,
            "seasonName": null,
            "tournamentId": 2,
            "isOpta": true,
            "tournamentRegionId": 252,
            "tournamentRegionCode": "gb-eng",
            "tournamentRegionName": "Angleterre",
            "regionCode": "gb-eng",
            "tournamentName": "Premier League",
            "rating": 6.74,
            "ranking": 12,
            "apps": 7,
            "tacklePerGame": 20.142857142857142,
            "interceptionPerGame": 9.2857142857142865,
            "foulsPerGame": 11.285714285714286,
            "offsideGivenPerGame": 0.8571428571428571,
            "shotsConcededPerGame": 12.857142857142858
        },
        {
            "name": "Monaco",
            "teamId": 248,
            "teamName": "Monaco",
            "teamRegionName": "France",
            "seasonId": 0,
            "seasonName": null,
            "tournamentId": 22,
            "isOpta": true,
            "tournamentRegionId": 74,
            "tournamentRegionCode": "fr",
            "tournamentRegionName": "France",
            "regionCode": "fr",
            "tournamentName": "Ligue 1",
            "rating": 6.7,
            "ranking": 13,
            "apps": 7,
            "tacklePerGame": 20.142857142857142,
            "interceptionPerGame": 11.142857142857142,
            "foulsPerGame": 14.428571428571429,
            "offsideGivenPerGame": 3.1428571428571428,
            "shotsConcededPerGame": 10.142857142857142
        },
        {
            "name": "Freiburg",
            "teamId": 50,
            "teamName": "Freiburg",
            "teamRegionName": "Allemagne",
            "seasonId": 0,
            "seasonName": null,
            "tournamentId": 3,
            "isOpta": true,
            "tournamentRegionId": 81,
            "tournamentRegionCode": "de",
            "tournamentRegionName": "Allemagne",
            "regionCode": "de",
            "tournamentName": "Bundesliga",
            "rating": 6.4,
            "ranking": 14,
            "apps": 6,
            "tacklePerGame": 19.5,
            "interceptionPerGame": 9.8333333333333339,
            "foulsPerGame": 9.0,
            "offsideGivenPerGame": 2.0,
            "shotsConcededPerGame": 16.833333333333332
        },
        {
            "name": "Lens",
            "teamId": 309,
            "teamName": "Lens",
            "teamRegionName": "France",
            "seasonId": 0,
            "seasonName": null,
            "tournamentId": 22,
            "isOpta": true,
            "tournamentRegionId": 74,
            "tournamentRegionCode": "fr",
            "tournamentRegionName": "France",
            "regionCode": "fr",
            "tournamentName": "Ligue 1",
            "rating": 6.54,
            "ranking": 15,
            "apps": 7,
            "tacklePerGame": 19.428571428571427,
            "interceptionPerGame": 8.4285714285714288,
            "foulsPerGame": 14.285714285714286,
            "offsideGivenPerGame": 2.8571428571428572,
            "shotsConcededPerGame": 12.285714285714286
        },
        {
            "name": "Genoa",
            "teamId": 278,
            "teamName": "Genoa",
            "teamRegionName": "Italie",
            "seasonId": 0,
            "seasonName": null,
            "tournamentId": 5,
            "isOpta": true,
            "tournamentRegionId": 108,
            "tournamentRegionCode": "it",
            "tournamentRegionName": "Italie",
            "regionCode": "it",
            "tournamentName": "Serie A",
            "rating": 6.45,
            "ranking": 16,
            "apps": 7,
            "tacklePerGame": 19.285714285714285,
            "interceptionPerGame": 10.428571428571429,
            "foulsPerGame": 11.285714285714286,
            "offsideGivenPerGame": 1.0,
            "shotsConcededPerGame": 12.714285714285714
        },
        {
            "name": "Chelsea",
            "teamId": 15,
            "teamName": "Chelsea",
            "teamRegionName": "Angleterre",
            "seasonId": 0,
            "seasonName": null,
            "tournamentId": 2,
            "isOpta": true,
            "tournamentRegionId": 252,
            "tournamentRegionCode": "gb-eng",
            "tournamentRegionName": "Angleterre",
            "regionCode": "gb-eng",
            "tournamentName": "Premier League",
            "rating": 6.71,
            "ranking": 17,
            "apps": 6,
            "tacklePerGame": 19.166666666666668,
            "interceptionPerGame": 7.666666666666667,
            "foulsPerGame": 14.833333333333334,
            "offsideGivenPerGame": 2.8333333333333335,
            "shotsConcededPerGame": 11.166666666666666
        },
        {
            "name": "Strasbourg",
            "teamId": 148,
            "teamName": "Strasbourg",
            "teamRegionName": "France",
            "seasonId": 0,
            "seasonName": null,
            "tournamentId": 22,
            "isOpta": true,
            "tournamentRegionId": 74,
            "tournamentRegionCode": "fr",
            "tournamentRegionName": "France",
            "regionCode": "fr",
            "tournamentName": "Ligue 1",
            "rating": 6.33,
            "ranking": 18,
            "apps": 5,
            "tacklePerGame": 19.0,
            "interceptionPerGame": 11.4,
            "foulsPerGame": 13.8,
            "offsideGivenPerGame": 1.2,
            "shotsConcededPerGame": 13.2
        },
        {
            "name": "Nottingham Forest",
            "teamId": 174,
            "teamName": "Nottingham Forest",
            "teamRegionName": "Angleterre",
            "seasonId": 0,
            "seasonName": null,
            "tournamentId": 2,
            "isOpta": true,
            "tournamentRegionId": 252,
            "tournamentRegionCode": "gb-eng",
            "tournamentRegionName": "Angleterre",
            "regionCode": "gb-eng",
            "tournamentName": "Premier League",
            "rating": 6.47,
            "ranking": 19,
            "apps": 7,
            "tacklePerGame": 19.0,
            "interceptionPerGame": 9.5714285714285712,
            "foulsPerGame": 12.285714285714286,
            "offsideGivenPerGame": 2.0,
            "shotsConcededPerGame": 15.142857142857142
        },
        {
            "name": "FC Koln",
            "teamId": 282,
            "teamName": "FC Koln",
            "teamRegionName": "Allemagne",
            "seasonId": 0,
            "seasonName": null,
            "tournamentId": 3,
            "isOpta": true,
            "tournamentRegionId": 81,
            "tournamentRegionCode": "de",
            "tournamentRegionName": "Allemagne",
            "regionCode": "de",
            "tournamentName": "Bundesliga",
            "rating": 6.39,
            "ranking": 20,
            "apps": 6,
            "tacklePerGame": 19.0,
            "interceptionPerGame": 9.1666666666666661,
            "foulsPerGame": 12.5,
            "offsideGivenPerGame": 1.1666666666666667,
            "shotsConcededPerGame": 19.5
        }
    ],
    "paging": {
        "currentPage": 1,
        "totalPages": 5,
        "resultsPerPage": 20,
        "totalResults": 96,
        "firstRecordIndex": 1,
        "lastRecordIndex": 20
    },
    "statColumns": [
        "apps",
        "shotsConcededPerGame",
        "tacklePerGame",
        "interceptionPerGame",
        "foulsPerGame",
        "offsideGivenPerGame"
    ]
}