{
    "teamTableStats": [
        {
            "name": "Bayern",
            "teamId": 37,
            "teamName": "Bayern Munich",
            "teamRegionName": "Allemagne",
            "seasonId": 0,
            "seasonName": null,
            "tournamentId": 3,
            "isOpta": true,
            "tournamentRegionId": 81,
            "tournamentRegionCode": "de",
            "tournamentRegionName": "Allemagne",
            "regionCode": "de",
            "tournamentName": "Bundesliga",
            "rating": 7.21,
            "ranking": 1,
            "apps": 6,
            "goal": 27.0,
            "yellowCard": 4.0,
            "redCard": 1.0,
            "shotsPerGame": 21.666666666666668,
            "aerialWonPerGame": 13.0,
            "possession": 0.6185,
            "passSuccess": 0.88825363825363823
        },
        {
            "name": "Leverkusen",
            "teamId": 36,
            "teamName": "Bayer Leverkusen",
            "teamRegionName": "Allemagne",
            "seasonId": 0,
            "seasonName": null,
            "tournamentId": 3,
            "isOpta": true,
            "tournamentRegionId": 81,
            "tournamentRegionCode": "de",
            "tournamentRegionName": "Allemagne",
            "regionCode": "de",
            "tournamentName": "Bundesliga",
            "rating": 7.05,
            "ranking": 2,
            "apps": 6,
            "goal": 21.0,
            "yellowCard": 8.0,
            "redCard": 0.0,
            "shotsPerGame": 19.333333333333332,
            "aerialWonPerGame": 11.666666666666666,
            "possession": 0.65481666666666671,
            "passSuccess": 0.90171137835337656
        },
        {
            "name": "Aston Villa",
            "teamId": 24,
            "teamName": "Aston Villa",
            "teamRegionName": "Angleterre",
            "seasonId": 0,
            "seasonName": null,
            "tournamentId": 2,
            "isOpta": true,
            "tournamentRegionId": 252,
            "tournamentRegionCode": "gb-eng",
            "tournamentRegionName": "Angleterre",
            "regionCode": "gb-eng",
            "tournamentName": "Premier League",
            "rating": 7.04,
            "ranking": 3,
            "apps": 6,
            "goal": 23.0,
            "yellowCard": 17.0,
            "redCard": 0.0,
            "shotsPerGame": 15.333333333333334,
            "aerialWonPerGame": 9.5,
            "possession": 0.57571666666666665,
            "passSuccess": 0.86758576466816284
        },
        {
            "name": "Liverpool",
            "teamId": 26,
            "teamName": "Liverpool",
            "teamRegionName": "Angleterre",
            "seasonId": 0,
            "seasonName": null,
            "tournamentId": 2,
            "isOpta": true,
            "tournamentRegionId": 252,
            "tournamentRegionCode": "gb-eng",
            "tournamentRegionName": "Angleterre",
            "regionCode": "gb-eng",
            "tournamentName": "Premier League",
            "rating": 7.04,
            "ranking": 4,
            "apps": 6,
            "goal": 17.0,
            "yellowCard": 5.0,
            "redCard": 1.0,
            "shotsPerGame": 21.5,
            "aerialWonPerGame": 19.5,
            "possession": 0.6689166666666666,
            "passSuccess": 0.87937643751597239
        },
        {
            "name": "Man City",
            "teamId": 167,
            "teamName": "Manchester City",
            "teamRegionName": "Angleterre",
            "seasonId": 0,
            "seasonName": null,
            "tournamentId": 2,
            "isOpta": true,
            "tournamentRegionId": 252,
            "tournamentRegionCode": "gb-eng",
            "tournamentRegionName": "Angleterre",
            "regionCode": "gb-eng",
            "tournamentName": "Premier League",
            "rating": 7.03,
            "ranking": 5,
            "apps": 6,
            "goal": 17.0,
            "yellowCard": 9.0,
            "redCard": 2.0,
            "shotsPerGame": 12.5,
            "aerialWonPerGame": 7.5,
            "possession": 0.60576666666666656,
            "passSuccess": 0.903577772139051
        },
        {
            "name": "Stuttgart",
            "teamId": 41,
            "teamName": "VfB Stuttgart",
            "teamRegionName": "Allemagne",
            "seasonId": 0,
            "seasonName": null,
            "tournamentId": 3,
            "isOpta": true,
            "tournamentRegionId": 81,
            "tournamentRegionCode": "de",
            "tournamentRegionName": "Allemagne",
            "regionCode": "de",
            "tournamentName": "Bundesliga",
            "rating": 7.01,
            "ranking": 6,
            "apps": 6,
            "goal": 20.0,
            "yellowCard": 8.0,
            "redCard": 0.0,
            "shotsPerGame": 18.5,
            "aerialWonPerGame": 16.166666666666668,
            "possession": 0.59491666666666665,
            "passSuccess": 0.87044759521823745
        },
        {
            "name": "PSG",
            "teamId": 304,
            "teamName": "Paris Saint-Germain",
            "teamRegionName": "France",
            "seasonId": 0,
            "seasonName": null,
            "tournamentId": 22,
            "isOpta": true,
            "tournamentRegionId": 74,
            "tournamentRegionCode": "fr",
            "tournamentRegionName": "France",
            "regionCode": "fr",
            "tournamentName": "Ligue 1",
            "rating": 7.01,
            "ranking": 7,
            "apps": 7,
            "goal": 20.0,
            "yellowCard": 5.0,
            "redCard": 0.0,
            "shotsPerGame": 15.571428571428571,
            "aerialWonPerGame": 6.4285714285714288,
            "possession": 0.7075285714285714,
            "passSuccess": 0.91042557145511982
        },
        {
            "name": "Real Madrid",
            "teamId": 52,
            "teamName": "Real Madrid",
            "teamRegionName": "Espagne",
            "seasonId": 0,
            "seasonName": null,
            "tournamentId": 4,
            "isOpta": true,
            "tournamentRegionId": 206,
            "tournamentRegionCode": "es",
            "tournamentRegionName": "Espagne",
            "regionCode": "es",
            "tournamentName": "LaLiga",
            "rating": 7.0,
            "ranking": 8,
            "apps": 6,
            "goal": 15.0,
            "yellowCard": 11.0,
            "redCard": 0.0,
            "shotsPerGame": 20.166666666666668,
            "aerialWonPerGame": 8.8333333333333339,
            "possession": 0.59558333333333335,
            "passSuccess": 0.88888888888888884
        },
        {
            "name": "Newcastle",
            "teamId": 23,
            "teamName": "Newcastle",
            "teamRegionName": "Angleterre",
            "seasonId": 0,
            "seasonName": null,
            "tournamentId": 2,
            "isOpta": true,
            "tournamentRegionId": 252,
            "tournamentRegionCode": "gb-eng",
            "tournamentRegionName": "Angleterre",
            "regionCode": "gb-eng",
            "tournamentName": "Premier League",
            "rating": 6.93,
            "ranking": 9,
            "apps": 7,
            "goal": 18.0,
            "yellowCard": 20.0,
            "redCard": 0.0,
            "shotsPerGame": 14.571428571428571,
            "aerialWonPerGame": 12.571428571428571,
            "possession": 0.53958571428571422,
            "passSuccess": 0.835980363846376
        },
        {
            "name": "RBL",
            "teamId": 7614,
            "teamName": "RB Leipzig",
            "teamRegionName": "Allemagne",
            "seasonId": 0,
            "seasonName": null,
            "tournamentId": 3,
            "isOpta": true,
            "tournamentRegionId": 81,
            "tournamentRegionCode": "de",
            "tournamentRegionName": "Allemagne",
            "regionCode": "de",
            "tournamentName": "Bundesliga",
            "rating": 6.91,
            "ranking": 10,
            "apps": 6,
            "goal": 19.0,
            "yellowCard": 9.0,
            "redCard": 0.0,
            "shotsPerGame": 15.5,
            "aerialWonPerGame": 9.5,
            "possession": 0.5692666666666667,
            "passSuccess": 0.864490298737296
        },
        {
            "name": "Barcelona",
            "teamId": 65,
            "teamName": "Barcelona",
            "teamRegionName": "Espagne",
            "seasonId": 0,
            "seasonName": null,
            "tournamentId": 4,
            "isOpta": true,
            "tournamentRegionId": 206,
            "tournamentRegionCode": "es",
            "tournamentRegionName": "Espagne",
            "regionCode": "es",
            "tournamentName": "LaLiga",
            "rating": 6.89,
            "ranking": 11,
            "apps": 7,
            "goal": 15.0,
            "yellowCard": 16.0,
            "redCard": 0.0,
            "shotsPerGame": 16.0,
            "aerialWonPerGame": 10.0,
            "possession": 0.65701428571428577,
            "passSuccess": 0.89142857142857146
        },
        {
            "name": "Inter",
            "teamId": 75,
            "teamName": "Inter",
            "teamRegionName": "Italie",
            "seasonId": 0,
            "seasonName": null,
            "tournamentId": 5,
            "isOpta": true,
            "tournamentRegionId": 108,
            "tournamentRegionCode": "it",
            "tournamentRegionName": "Italie",
            "regionCode": "it",
            "tournamentName": "Serie A",
            "rating": 6.89,
            "ranking": 12,
            "apps": 7,
            "goal": 17.0,
            "yellowCard": 9.0,
            "redCard": 0.0,
            "shotsPerGame": 17.714285714285715,
            "aerialWonPerGame": 13.0,
            "possession": 0.51972857142857143,
            "passSuccess": 0.86165191740412983
        },
        {
            "name": "Marseille",
            "teamId": 249,
            "teamName": "Marseille",
            "teamRegionName": "France",
            "seasonId": 0,
            "seasonName": null,
            "tournamentId": 22,
            "isOpta": true,
            "tournamentRegionId": 74,
            "tournamentRegionCode": "fr",
            "tournamentRegionName": "France",
            "regionCode": "fr",
            "tournamentName": "Ligue 1",
            "rating": 6.89,
            "ranking": 13,
            "apps": 5,
            "goal": 7.0,
            "yellowCard": 5.0,
            "redCard": 0.0,
            "shotsPerGame": 15.0,
            "aerialWonPerGame": 10.4,
            "possession": 0.5201,
            "passSuccess": 0.85463659147869675
        },
        {
            "name": "Monaco",
            "teamId": 248,
            "teamName": "Monaco",
            "teamRegionName": "France",
            "seasonId": 0,
            "seasonName": null,
            "tournamentId": 22,
            "isOpta": true,
            "tournamentRegionId": 74,
            "tournamentRegionCode": "fr",
            "tournamentRegionName": "France",
            "regionCode": "fr",
            "tournamentName": "Ligue 1",
            "rating": 6.87,
            "ranking": 14,
            "apps": 6,
            "goal": 13.0,
            "yellowCard": 14.0,
            "redCard": 0.0,
            "shotsPerGame": 13.166666666666666,
            "aerialWonPerGame": 11.5,
            "possession": 0.5543,
            "passSuccess": 0.83082826990725933
        },
        {
            "name": "Atletico",
            "teamId": 63,
            "teamName": "Atletico Madrid",
            "teamRegionName": "Espagne",
            "seasonId": 0,
            "seasonName": null,
            "tournamentId": 4,
            "isOpta": true,
            "tournamentRegionId": 206,
            "tournamentRegionCode": "es",
            "tournamentRegionName": "Espagne",
            "regionCode": "es",
            "tournamentName": "LaLiga",
            "rating": 6.84,
            "ranking": 15,
            "apps": 7,
            "goal": 17.0,
            "yellowCard": 11.0,
            "redCard": 0.0,
            "shotsPerGame": 16.0,
            "aerialWonPerGame": 13.142857142857142,
            "possession": 0.53381428571428569,
            "passSuccess": 0.85759577278731836
        },
        {
            "name": "Roma",
            "teamId": 84,
            "teamName": "Roma",
            "teamRegionName": "Italie",
            "seasonId": 0,
            "seasonName": null,
            "tournamentId": 5,
            "isOpta": true,
            "tournamentRegionId": 108,
            "tournamentRegionCode": "it",
            "tournamentRegionName": "Italie",
            "regionCode": "it",
            "tournamentName": "Serie A",
            "rating": 6.84,
            "ranking": 16,
            "apps": 7,
            "goal": 18.0,
            "yellowCard": 11.0,
            "redCard": 0.0,
            "shotsPerGame": 14.142857142857142,
            "aerialWonPerGame": 13.428571428571429,
            "possession": 0.5429571428571428,
            "passSuccess": 0.84436598999705792
        },
        {
            "name": "Lille",
            "teamId": 607,
            "teamName": "Lille",
            "teamRegionName": "France",
            "seasonId": 0,
            "seasonName": null,
            "tournamentId": 22,
            "isOpta": true,
            "tournamentRegionId": 74,
            "tournamentRegionCode": "fr",
            "tournamentRegionName": "France",
            "regionCode": "fr",
            "tournamentName": "Ligue 1",
            "rating": 6.83,
            "ranking": 17,
            "apps": 6,
            "goal": 8.0,
            "yellowCard": 9.0,
            "redCard": 1.0,
            "shotsPerGame": 12.333333333333334,
            "aerialWonPerGame": 13.166666666666666,
            "possession": 0.56836666666666669,
            "passSuccess": 0.83445718138907621
        },
        {
            "name": "Arsenal",
            "teamId": 13,
            "teamName": "Arsenal",
            "teamRegionName": "Angleterre",
            "seasonId": 0,
            "seasonName": null,
            "tournamentId": 2,
            "isOpta": true,
            "tournamentRegionId": 252,
            "tournamentRegionCode": "gb-eng",
            "tournamentRegionName": "Angleterre",
            "regionCode": "gb-eng",
            "tournamentName": "Premier League",
            "rating": 6.82,
            "ranking": 18,
            "apps": 7,
            "goal": 18.0,
            "yellowCard": 9.0,
            "redCard": 1.0,
            "shotsPerGame": 15.0,
            "aerialWonPerGame": 13.142857142857142,
            "possession": 0.61647142857142856,
            "passSuccess": 0.88254046101029915
        },
        {
            "name": "Real Betis",
            "teamId": 54,
            "teamName": "Real Betis",
            "teamRegionName": "Espagne",
            "seasonId": 0,
            "seasonName": null,
            "tournamentId": 4,
            "isOpta": true,
            "tournamentRegionId": 206,
            "tournamentRegionCode": "es",
            "tournamentRegionName": "Espagne",
            "regionCode": "es",
            "tournamentName": "LaLiga",
            "rating": 6.82,
            "ranking": 19,
            "apps": 7,
            "goal": 10.0,
            "yellowCard": 14.0,
            "redCard": 0.0,
            "shotsPerGame": 15.285714285714286,
            "aerialWonPerGame": 12.285714285714286,
            "possession": 0.52962857142857145,
            "passSuccess": 0.860291927316056
        },
        {
            "name": "Nice",
            "teamId": 613,
            "teamName": "Nice",
            "teamRegionName": "France",
            "seasonId": 0,
            "seasonName": null,
            "tournamentId": 22,
            "isOpta": true,
            "tournamentRegionId": 74,
            "tournamentRegionCode": "fr",
            "tournamentRegionName": "France",
            "regionCode": "fr",
            "tournamentName": "Ligue 1",
            "rating": 6.78,
            "ranking": 20,
            "apps": 7,
            "goal": 7.0,
            "yellowCard": 11.0,
            "redCard": 1.0,
            "shotsPerGame": 12.857142857142858,
            "aerialWonPerGame": 9.7142857142857135,
            "possession": 0.5198571428571428,
            "passSuccess": 0.86772022241732516
        }
    ],
    "paging": {
        "currentPage": 1,
        "totalPages": 5,
        "resultsPerPage": 20,
        "totalResults": 96,
        "firstRecordIndex": 1,
        "lastRecordIndex": 20
    },
    "statColumns": [
        "apps",
        "goal",
        "shotsPerGame",
        "yellowCard",
        "redCard",
        "possession",
        "passSuccess",
        "aerialWonPerGame"
    ]
}