{
    "teamTableStats": [
        {
            "name": "Bayern",
            "teamId": 37,
            "teamName": "Bayern Munich",
            "teamRegionName": "Allemagne",
            "seasonId": 0,
            "seasonName": null,
            "tournamentId": 3,
            "isOpta": true,
            "tournamentRegionId": 81,
            "tournamentRegionCode": "de",
            "tournamentRegionName": "Allemagne",
            "regionCode": "de",
            "tournamentName": "Bundesliga",
            "rating": 7.12,
            "ranking": 1,
            "apps": 6,
            "goal": 16.0,
            "yellowCard": 13.0,
            "redCard": 0.0,
            "shotsPerGame": 18.166666666666668,
            "aerialWonPerGame": 12.5,
            "possession": 0.63868333333333327,
            "passSuccess": 0.88797108931337121
        },
        {
            "name": "PSG",
            "teamId": 304,
            "teamName": "Paris Saint-Germain",
            "teamRegionName": "France",
            "seasonId": 0,
            "seasonName": null,
            "tournamentId": 22,
            "isOpta": true,
            "tournamentRegionId": 74,
            "tournamentRegionCode": "fr",
            "tournamentRegionName": "France",
            "regionCode": "fr",
            "tournamentName": "Ligue 1",
            "rating": 7.07,
            "ranking": 2,
            "apps": 6,
            "goal": 14.0,
            "yellowCard": 12.0,
            "redCard": 0.0,
            "shotsPerGame": 17.833333333333332,
            "aerialWonPerGame": 7.666666666666667,
            "possession": 0.6489166666666667,
            "passSuccess": 0.89913397860417732
        },
        {
            "name": "Leverkusen",
            "teamId": 36,
            "teamName": "Bayer Leverkusen",
            "teamRegionName": "Allemagne",
            "seasonId": 0,
            "seasonName": null,
            "tournamentId": 3,
            "isOpta": true,
            "tournamentRegionId": 81,
            "tournamentRegionCode": "de",
            "tournamentRegionName": "Allemagne",
            "regionCode": "de",
            "tournamentName": "Bundesliga",
            "rating": 6.91,
            "ranking": 3,
            "apps": 6,
            "goal": 16.0,
            "yellowCard": 15.0,
            "redCard": 0.0,
            "shotsPerGame": 13.166666666666666,
            "aerialWonPerGame": 7.5,
            "possession": 0.5567,
            "passSuccess": 0.87450566833640919
        },
        {
            "name": "Inter",
            "teamId": 75,
            "teamName": "Inter",
            "teamRegionName": "Italie",
            "seasonId": 0,
            "seasonName": null,
            "tournamentId": 5,
            "isOpta": true,
            "tournamentRegionId": 108,
            "tournamentRegionCode": "it",
            "tournamentRegionName": "Italie",
            "regionCode": "it",
            "tournamentName": "Serie A",
            "rating": 6.89,
            "ranking": 4,
            "apps": 6,
            "goal": 13.0,
            "yellowCard": 8.0,
            "redCard": 0.0,
            "shotsPerGame": 14.666666666666666,
            "aerialWonPerGame": 17.833333333333332,
            "possession": 0.59825,
            "passSuccess": 0.86641661858049623
        },
        {
            "name": "Man City",
            "teamId": 167,
            "teamName": "Manchester City",
            "teamRegionName": "Angleterre",
            "seasonId": 0,
            "seasonName": null,
            "tournamentId": 2,
            "isOpta": true,
            "tournamentRegionId": 252,
            "tournamentRegionCode": "gb-eng",
            "tournamentRegionName": "Angleterre",
            "regionCode": "gb-eng",
            "tournamentName": "Premier League",
            "rating": 6.89,
            "ranking": 5,
            "apps": 7,
            "goal": 16.0,
            "yellowCard": 14.0,
            "redCard": 0.0,
            "shotsPerGame": 19.857142857142858,
            "aerialWonPerGame": 8.2857142857142865,
            "possession": 0.6384,
            "passSuccess": 0.90059010440308673
        },
        {
            "name": "Real Madrid",
            "teamId": 52,
            "teamName": "Real Madrid",
            "teamRegionName": "Espagne",
            "seasonId": 0,
            "seasonName": null,
            "tournamentId": 4,
            "isOpta": true,
            "tournamentRegionId": 206,
            "tournamentRegionCode": "es",
            "tournamentRegionName": "Espagne",
            "regionCode": "es",
            "tournamentName": "LaLiga",
            "rating": 6.88,
            "ranking": 6,
            "apps": 8,
            "goal": 16.0,
            "yellowCard": 15.0,
            "redCard": 1.0,
            "shotsPerGame": 15.5,
            "aerialWonPerGame": 8.0,
            "possession": 0.55585,
            "passSuccess": 0.90277474328162555
        },
        {
            "name": "Napoli",
            "teamId": 276,
            "teamName": "Napoli",
            "teamRegionName": "Italie",
            "seasonId": 0,
            "seasonName": null,
            "tournamentId": 5,
            "isOpta": true,
            "tournamentRegionId": 108,
            "tournamentRegionCode": "it",
            "tournamentRegionName": "Italie",
            "regionCode": "it",
            "tournamentName": "Serie A",
            "rating": 6.86,
            "ranking": 7,
            "apps": 7,
            "goal": 16.0,
            "yellowCard": 17.0,
            "redCard": 0.0,
            "shotsPerGame": 16.0,
            "aerialWonPerGame": 11.714285714285714,
            "possession": 0.5718,
            "passSuccess": 0.85745795423214777
        },
        {
            "name": "Tottenham",
            "teamId": 30,
            "teamName": "Tottenham",
            "teamRegionName": "Angleterre",
            "seasonId": 0,
            "seasonName": null,
            "tournamentId": 2,
            "isOpta": true,
            "tournamentRegionId": 252,
            "tournamentRegionCode": "gb-eng",
            "tournamentRegionName": "Angleterre",
            "regionCode": "gb-eng",
            "tournamentName": "Premier League",
            "rating": 6.84,
            "ranking": 8,
            "apps": 7,
            "goal": 15.0,
            "yellowCard": 19.0,
            "redCard": 1.0,
            "shotsPerGame": 14.285714285714286,
            "aerialWonPerGame": 9.5714285714285712,
            "possession": 0.62144285714285719,
            "passSuccess": 0.8820992092020129
        },
        {
            "name": "Hoffenheim",
            "teamId": 1211,
            "teamName": "Hoffenheim",
            "teamRegionName": "Allemagne",
            "seasonId": 0,
            "seasonName": null,
            "tournamentId": 3,
            "isOpta": true,
            "tournamentRegionId": 81,
            "tournamentRegionCode": "de",
            "tournamentRegionName": "Allemagne",
            "regionCode": "de",
            "tournamentName": "Bundesliga",
            "rating": 6.84,
            "ranking": 9,
            "apps": 6,
            "goal": 15.0,
            "yellowCard": 19.0,
            "redCard": 0.0,
            "shotsPerGame": 11.5,
            "aerialWonPerGame": 17.666666666666668,
            "possession": 0.48771666666666669,
            "passSuccess": 0.77533718689788056
        },
        {
            "name": "Atletico",
            "teamId": 63,
            "teamName": "Atletico Madrid",
            "teamRegionName": "Espagne",
            "seasonId": 0,
            "seasonName": null,
            "tournamentId": 4,
            "isOpta": true,
            "tournamentRegionId": 206,
            "tournamentRegionCode": "es",
            "tournamentRegionName": "Espagne",
            "regionCode": "es",
            "tournamentName": "LaLiga",
            "rating": 6.83,
            "ranking": 10,
            "apps": 6,
            "goal": 13.0,
            "yellowCard": 14.0,
            "redCard": 1.0,
            "shotsPerGame": 10.5,
            "aerialWonPerGame": 12.166666666666666,
            "possession": 0.5204333333333333,
            "passSuccess": 0.83514724711907806
        },
        {
            "name": "Juventus",
            "teamId": 87,
            "teamName": "Juventus",
            "teamRegionName": "Italie",
            "seasonId": 0,
            "seasonName": null,
            "tournamentId": 5,
            "isOpta": true,
            "tournamentRegionId": 108,
            "tournamentRegionCode": "it",
            "tournamentRegionName": "Italie",
            "regionCode": "it",
            "tournamentName": "Serie A",
            "rating": 6.79,
            "ranking": 11,
            "apps": 6,
            "goal": 9.0,
            "yellowCard": 17.0,
            "redCard": 0.0,
            "shotsPerGame": 10.833333333333334,
            "aerialWonPerGame": 13.666666666666666,
            "possession": 0.48071666666666668,
            "passSuccess": 0.83211958604829439
        },
        {
            "name": "Man Utd",
            "teamId": 32,
            "teamName": "Manchester United",
            "teamRegionName": "Angleterre",
            "seasonId": 0,
            "seasonName": null,
            "tournamentId": 2,
            "isOpta": true,
            "tournamentRegionId": 252,
            "tournamentRegionCode": "gb-eng",
            "tournamentRegionName": "Angleterre",
            "regionCode": "gb-eng",
            "tournamentName": "Premier League",
            "rating": 6.77,
            "ranking": 12,
            "apps": 6,
            "goal": 8.0,
            "yellowCard": 11.0,
            "redCard": 0.0,
            "shotsPerGame": 13.0,
            "aerialWonPerGame": 15.333333333333334,
            "possession": 0.48628333333333329,
            "passSuccess": 0.80514705882352944
        },
        {
            "name": "Arsenal",
            "teamId": 13,
            "teamName": "Arsenal",
            "teamRegionName": "Angleterre",
            "seasonId": 0,
            "seasonName": null,
            "tournamentId": 2,
            "isOpta": true,
            "tournamentRegionId": 252,
            "tournamentRegionCode": "gb-eng",
            "tournamentRegionName": "Angleterre",
            "regionCode": "gb-eng",
            "tournamentName": "Premier League",
            "rating": 6.75,
            "ranking": 13,
            "apps": 6,
            "goal": 9.0,
            "yellowCard": 8.0,
            "redCard": 1.0,
            "shotsPerGame": 14.0,
            "aerialWonPerGame": 13.5,
            "possession": 0.60533333333333328,
            "passSuccess": 0.85906862745098034
        },
        {
            "name": "Girona",
            "teamId": 2783,
            "teamName": "Girona",
            "teamRegionName": "Espagne",
            "seasonId": 0,
            "seasonName": null,
            "tournamentId": 4,
            "isOpta": true,
            "tournamentRegionId": 206,
            "tournamentRegionCode": "es",
            "tournamentRegionName": "Espagne",
            "regionCode": "es",
            "tournamentName": "LaLiga",
            "rating": 6.75,
            "ranking": 14,
            "apps": 7,
            "goal": 16.0,
            "yellowCard": 19.0,
            "redCard": 0.0,
            "shotsPerGame": 13.428571428571429,
            "aerialWonPerGame": 13.0,
            "possession": 0.5477,
            "passSuccess": 0.85621721690836161
        },
        {
            "name": "Barcelona",
            "teamId": 65,
            "teamName": "Barcelona",
            "teamRegionName": "Espagne",
            "seasonId": 0,
            "seasonName": null,
            "tournamentId": 4,
            "isOpta": true,
            "tournamentRegionId": 206,
            "tournamentRegionCode": "es",
            "tournamentRegionName": "Espagne",
            "regionCode": "es",
            "tournamentName": "LaLiga",
            "rating": 6.74,
            "ranking": 15,
            "apps": 7,
            "goal": 12.0,
            "yellowCard": 17.0,
            "redCard": 1.0,
            "shotsPerGame": 14.714285714285714,
            "aerialWonPerGame": 14.285714285714286,
            "possession": 0.67784285714285719,
            "passSuccess": 0.89169758812615951
        },
        {
            "name": "Crystal Palace",
            "teamId": 162,
            "teamName": "Crystal Palace",
            "teamRegionName": "Angleterre",
            "seasonId": 0,
            "seasonName": null,
            "tournamentId": 2,
            "isOpta": true,
            "tournamentRegionId": 252,
            "tournamentRegionCode": "gb-eng",
            "tournamentRegionName": "Angleterre",
            "regionCode": "gb-eng",
            "tournamentName": "Premier League",
            "rating": 6.74,
            "ranking": 16,
            "apps": 7,
            "goal": 7.0,
            "yellowCard": 14.0,
            "redCard": 0.0,
            "shotsPerGame": 12.857142857142858,
            "aerialWonPerGame": 16.428571428571427,
            "possession": 0.42038571428571425,
            "passSuccess": 0.77982687241249526
        },
        {
            "name": "Stuttgart",
            "teamId": 41,
            "teamName": "VfB Stuttgart",
            "teamRegionName": "Allemagne",
            "seasonId": 0,
            "seasonName": null,
            "tournamentId": 3,
            "isOpta": true,
            "tournamentRegionId": 81,
            "tournamentRegionCode": "de",
            "tournamentRegionName": "Allemagne",
            "regionCode": "de",
            "tournamentName": "Bundesliga",
            "rating": 6.72,
            "ranking": 17,
            "apps": 6,
            "goal": 11.0,
            "yellowCard": 8.0,
            "redCard": 0.0,
            "shotsPerGame": 13.333333333333334,
            "aerialWonPerGame": 15.666666666666666,
            "possession": 0.5585,
            "passSuccess": 0.841717791411043
        },
        {
            "name": "Chelsea",
            "teamId": 15,
            "teamName": "Chelsea",
            "teamRegionName": "Angleterre",
            "seasonId": 0,
            "seasonName": null,
            "tournamentId": 2,
            "isOpta": true,
            "tournamentRegionId": 252,
            "tournamentRegionCode": "gb-eng",
            "tournamentRegionName": "Angleterre",
            "regionCode": "gb-eng",
            "tournamentName": "Premier League",
            "rating": 6.71,
            "ranking": 18,
            "apps": 6,
            "goal": 12.0,
            "yellowCard": 25.0,
            "redCard": 1.0,
            "shotsPerGame": 12.5,
            "aerialWonPerGame": 10.0,
            "possession": 0.58956666666666668,
            "passSuccess": 0.87756925826630916
        },
        {
            "name": "Everton",
            "teamId": 31,
            "teamName": "Everton",
            "teamRegionName": "Angleterre",
            "seasonId": 0,
            "seasonName": null,
            "tournamentId": 2,
            "isOpta": true,
            "tournamentRegionId": 252,
            "tournamentRegionCode": "gb-eng",
            "tournamentRegionName": "Angleterre",
            "regionCode": "gb-eng",
            "tournamentName": "Premier League",
            "rating": 6.7,
            "ranking": 19,
            "apps": 6,
            "goal": 9.0,
            "yellowCard": 14.0,
            "redCard": 1.0,
            "shotsPerGame": 11.166666666666666,
            "aerialWonPerGame": 18.666666666666668,
            "possession": 0.37793333333333329,
            "passSuccess": 0.74730426629160807
        },
        {
            "name": "Monaco",
            "teamId": 248,
            "teamName": "Monaco",
            "teamRegionName": "France",
            "seasonId": 0,
            "seasonName": null,
            "tournamentId": 22,
            "isOpta": true,
            "tournamentRegionId": 74,
            "tournamentRegionCode": "fr",
            "tournamentRegionName": "France",
            "regionCode": "fr",
            "tournamentName": "Ligue 1",
            "rating": 6.7,
            "ranking": 20,
            "apps": 7,
            "goal": 14.0,
            "yellowCard": 17.0,
            "redCard": 0.0,
            "shotsPerGame": 16.0,
            "aerialWonPerGame": 11.0,
            "possession": 0.54924285714285714,
            "passSuccess": 0.83644469211479522
        }
    ],
    "paging": {
        "currentPage": 1,
        "totalPages": 5,
        "resultsPerPage": 20,
        "totalResults": 96,
        "firstRecordIndex": 1,
        "lastRecordIndex": 20
    },
    "statColumns": [
        "apps",
        "goal",
        "shotsPerGame",
        "yellowCard",
        "redCard",
        "possession",
        "passSuccess",
        "aerialWonPerGame"
    ]
}